<?xml version="1.0" encoding="UTF-8" standalone="no" ?>
<gpx xmlns="http://www.topografix.com/GPX/1/1" xmlns:gpxtpx="http://www.garmin.com/xmlschemas/TrackPointExtension/v1" creator="OruxMaps v.5.5.18" version="1.1" xmlns:xsi="http://www.w3.org/2001/XMLSchema-instance" xsi:schemaLocation="http://www.topografix.com/GPX/1/1 http://www.topografix.com/GPX/1/1/gpx.xsd">
<metadata>
<name><![CDATA[2014-11-16 10:42]]></name>
<desc><![CDATA[]]></desc>
<link href="http://www.oruxmaps.com">
<text>OruxMaps</text>
</link>
<time>2014-11-16T09:42:24Z</time><bounds maxlat="49.20107816" maxlon="19.54698565" minlat="49.15793856" minlon="19.48597527"/>
</metadata>
<trk>
<name><![CDATA[2014-11-16 10:42]]></name>
<desc><![CDATA[<h1>OruxMaps</h1><br /><hr align="center" width="480" style="height: 2px; width: 517px"/><h2>Názov: 2014-11-16 10:42</h2><br /><p>Štart: 11/16/2014 10:42</p><p>Cieľ: 11/16/2014 13:11</p><p>Vzdialenosť: 16,5 km (02:29)</p><p>Čas pohybu: 02:08</p><p>Priemerná rýchlosť: 6,6 km/h</p><p>Priem. rýchlosť pohybu: 7,7 km/h</p><p>Max. Rýchlosť: 76,3 km/h</p><p>Minimálna výška: 626 m</p><p>Maximálna výška: 941 m</p><p>Rýchlosť stúpania: 485,9 m/h</p><p>Rýchlosť klesania: -770,4 m/h</p><p>Stúpanie: 710 m</p><p>Klesanie: -692 m</p><p>Čas stúpania: 01:27</p><p>Čas klesania: 00:53</p><hr align="center" width="480" style="height: 2px; width: 517px"/>]]></desc>
<type>Nezaradená</type>
<extensions>
<om:oruxmapsextensions xmlns:om="http://www.oruxmaps.com/oruxmapsextensions/1/0">
<om:ext type="TYPE" subtype="0">0</om:ext>
</om:oruxmapsextensions>
</extensions>
<trkseg>
<trkpt lat="49.17828638" lon="19.54229881">
<ele>626.98</ele>
<time>2014-11-16T09:42:42Z</time>
</trkpt>
<trkpt lat="49.17817279" lon="19.5415475">
<ele>638.06</ele>
<time>2014-11-16T09:44:36Z</time>
</trkpt>
<trkpt lat="49.17821574" lon="19.54183056">
<ele>636.63</ele>
<time>2014-11-16T09:44:37Z</time>
</trkpt>
<trkpt lat="49.17814198" lon="19.54213295">
<ele>639.71</ele>
<time>2014-11-16T09:44:55Z</time>
</trkpt>
<trkpt lat="49.17825719" lon="19.54234427">
<ele>630.10</ele>
<time>2014-11-16T09:45:59Z</time>
</trkpt>
<trkpt lat="49.17813672" lon="19.54257528">
<ele>639.18</ele>
<time>2014-11-16T09:46:49Z</time>
</trkpt>
<trkpt lat="49.17792234" lon="19.54265748">
<ele>642.25</ele>
<time>2014-11-16T09:47:10Z</time>
</trkpt>
<trkpt lat="49.1777578" lon="19.54281939">
<ele>634.86</ele>
<time>2014-11-16T09:47:33Z</time>
</trkpt>
<trkpt lat="49.17759673" lon="19.54297213">
<ele>635.75</ele>
<time>2014-11-16T09:47:48Z</time>
</trkpt>
<trkpt lat="49.17743802" lon="19.54310654">
<ele>639.27</ele>
<time>2014-11-16T09:48:17Z</time>
</trkpt>
<trkpt lat="49.17726013" lon="19.54324877">
<ele>649.21</ele>
<time>2014-11-16T09:48:31Z</time>
</trkpt>
<trkpt lat="49.17706813" lon="19.54330144">
<ele>654.55</ele>
<time>2014-11-16T09:48:40Z</time>
</trkpt>
<trkpt lat="49.17687288" lon="19.54330291">
<ele>659.30</ele>
<time>2014-11-16T09:48:54Z</time>
</trkpt>
<trkpt lat="49.1759359" lon="19.5431257">
<ele>658.95</ele>
<time>2014-11-16T09:49:32Z</time>
</trkpt>
<trkpt lat="49.17574658" lon="19.54314158">
<ele>644.53</ele>
<time>2014-11-16T09:49:36Z</time>
</trkpt>
<trkpt lat="49.17557287" lon="19.54305377">
<ele>635.35</ele>
<time>2014-11-16T09:49:46Z</time>
</trkpt>
<trkpt lat="49.17538606" lon="19.54305674">
<ele>637.22</ele>
<time>2014-11-16T09:49:53Z</time>
</trkpt>
<trkpt lat="49.17519604" lon="19.5430971">
<ele>633.20</ele>
<time>2014-11-16T09:49:59Z</time>
</trkpt>
<trkpt lat="49.17500363" lon="19.54303728">
<ele>635.29</ele>
<time>2014-11-16T09:50:06Z</time>
</trkpt>
<trkpt lat="49.17481182" lon="19.54292195">
<ele>633.73</ele>
<time>2014-11-16T09:50:16Z</time>
</trkpt>
<trkpt lat="49.17463168" lon="19.54291534">
<ele>633.38</ele>
<time>2014-11-16T09:50:24Z</time>
</trkpt>
<trkpt lat="49.17443939" lon="19.54285731">
<ele>632.38</ele>
<time>2014-11-16T09:50:31Z</time>
</trkpt>
<trkpt lat="49.1742966" lon="19.54263397">
<ele>628.31</ele>
<time>2014-11-16T09:50:38Z</time>
</trkpt>
<trkpt lat="49.17415337" lon="19.54240424">
<ele>628.15</ele>
<time>2014-11-16T09:50:46Z</time>
</trkpt>
<trkpt lat="49.17405815" lon="19.54213493">
<ele>628.17</ele>
<time>2014-11-16T09:50:55Z</time>
</trkpt>
<trkpt lat="49.17398399" lon="19.54188128">
<ele>629.07</ele>
<time>2014-11-16T09:51:03Z</time>
</trkpt>
<trkpt lat="49.17391532" lon="19.54161752">
<ele>632.17</ele>
<time>2014-11-16T09:51:14Z</time>
</trkpt>
<trkpt lat="49.17388385" lon="19.54134707">
<ele>635.82</ele>
<time>2014-11-16T09:51:26Z</time>
</trkpt>
<trkpt lat="49.17377069" lon="19.541124">
<ele>637.09</ele>
<time>2014-11-16T09:51:39Z</time>
</trkpt>
<trkpt lat="49.17361012" lon="19.5409589">
<ele>638.04</ele>
<time>2014-11-16T09:51:53Z</time>
</trkpt>
<trkpt lat="49.17344457" lon="19.54081146">
<ele>637.39</ele>
<time>2014-11-16T09:52:07Z</time>
</trkpt>
<trkpt lat="49.1733019" lon="19.54064402">
<ele>640.05</ele>
<time>2014-11-16T09:52:15Z</time>
</trkpt>
<trkpt lat="49.17326886" lon="19.54035777">
<ele>643.41</ele>
<time>2014-11-16T09:52:29Z</time>
</trkpt>
<trkpt lat="49.17321798" lon="19.54005875">
<ele>643.48</ele>
<time>2014-11-16T09:52:43Z</time>
</trkpt>
<trkpt lat="49.17326618" lon="19.539767">
<ele>647.22</ele>
<time>2014-11-16T09:52:55Z</time>
</trkpt>
<trkpt lat="49.17330563" lon="19.53948465">
<ele>652.92</ele>
<time>2014-11-16T09:53:10Z</time>
</trkpt>
<trkpt lat="49.17320617" lon="19.5392403">
<ele>657.01</ele>
<time>2014-11-16T09:53:27Z</time>
</trkpt>
<trkpt lat="49.17312878" lon="19.53898174">
<ele>664.15</ele>
<time>2014-11-16T09:53:40Z</time>
</trkpt>
<trkpt lat="49.17310845" lon="19.53870171">
<ele>666.97</ele>
<time>2014-11-16T09:53:55Z</time>
</trkpt>
<trkpt lat="49.17298888" lon="19.53801511">
<ele>668.90</ele>
<time>2014-11-16T09:54:33Z</time>
</trkpt>
<trkpt lat="49.17288852" lon="19.53777262">
<ele>677.75</ele>
<time>2014-11-16T09:54:48Z</time>
</trkpt>
<trkpt lat="49.1728558" lon="19.53749238">
<ele>678.84</ele>
<time>2014-11-16T09:55:04Z</time>
</trkpt>
<trkpt lat="49.17285535" lon="19.53721419">
<ele>680.73</ele>
<time>2014-11-16T09:55:19Z</time>
</trkpt>
<trkpt lat="49.17275022" lon="19.5369608">
<ele>679.33</ele>
<time>2014-11-16T09:56:18Z</time>
</trkpt>
<trkpt lat="49.17266675" lon="19.53671545">
<ele>677.05</ele>
<time>2014-11-16T09:56:51Z</time>
</trkpt>
<trkpt lat="49.17252135" lon="19.53652123">
<ele>680.48</ele>
<time>2014-11-16T09:57:07Z</time>
</trkpt>
<trkpt lat="49.17236747" lon="19.53633251">
<ele>689.03</ele>
<time>2014-11-16T09:57:20Z</time>
</trkpt>
<trkpt lat="49.17232862" lon="19.53606421">
<ele>697.98</ele>
<time>2014-11-16T09:57:34Z</time>
</trkpt>
<trkpt lat="49.17227316" lon="19.53575752">
<ele>706.41</ele>
<time>2014-11-16T09:57:48Z</time>
</trkpt>
<trkpt lat="49.17223033" lon="19.53548073">
<ele>710.52</ele>
<time>2014-11-16T09:58:01Z</time>
</trkpt>
<trkpt lat="49.17232992" lon="19.53523685">
<ele>713.66</ele>
<time>2014-11-16T09:58:17Z</time>
</trkpt>
<trkpt lat="49.17246246" lon="19.53504414">
<ele>711.97</ele>
<time>2014-11-16T09:58:46Z</time>
</trkpt>
<trkpt lat="49.17227904" lon="19.53437937">
<ele>707.37</ele>
<time>2014-11-16T09:59:32Z</time>
</trkpt>
<trkpt lat="49.17209348" lon="19.5345078">
<ele>725.40</ele>
<time>2014-11-16T09:59:34Z</time>
</trkpt>
<trkpt lat="49.17208053" lon="19.53418098">
<ele>733.99</ele>
<time>2014-11-16T09:59:38Z</time>
</trkpt>
<trkpt lat="49.17214891" lon="19.53392094">
<ele>724.64</ele>
<time>2014-11-16T09:59:55Z</time>
</trkpt>
<trkpt lat="49.17213785" lon="19.53362163">
<ele>722.30</ele>
<time>2014-11-16T10:00:10Z</time>
</trkpt>
<trkpt lat="49.17210331" lon="19.53334038">
<ele>724.30</ele>
<time>2014-11-16T10:00:24Z</time>
</trkpt>
<trkpt lat="49.17201731" lon="19.53309381">
<ele>725.52</ele>
<time>2014-11-16T10:00:36Z</time>
</trkpt>
<trkpt lat="49.17204459" lon="19.53282235">
<ele>722.87</ele>
<time>2014-11-16T10:00:51Z</time>
</trkpt>
<trkpt lat="49.17211989" lon="19.53253753">
<ele>725.58</ele>
<time>2014-11-16T10:01:11Z</time>
</trkpt>
<trkpt lat="49.17211035" lon="19.53226084">
<ele>735.49</ele>
<time>2014-11-16T10:01:29Z</time>
</trkpt>
<trkpt lat="49.17202599" lon="19.53199223">
<ele>739.51</ele>
<time>2014-11-16T10:01:46Z</time>
</trkpt>
<trkpt lat="49.1718668" lon="19.53186101">
<ele>743.19</ele>
<time>2014-11-16T10:01:58Z</time>
</trkpt>
<trkpt lat="49.1717342" lon="19.53161131">
<ele>744.62</ele>
<time>2014-11-16T10:02:16Z</time>
</trkpt>
<trkpt lat="49.17154666" lon="19.53150729">
<ele>748.49</ele>
<time>2014-11-16T10:02:34Z</time>
</trkpt>
<trkpt lat="49.17135732" lon="19.53148783">
<ele>750.44</ele>
<time>2014-11-16T10:02:43Z</time>
</trkpt>
<trkpt lat="49.17117191" lon="19.5314769">
<ele>751.41</ele>
<time>2014-11-16T10:02:50Z</time>
</trkpt>
<trkpt lat="49.17098479" lon="19.5314233">
<ele>753.25</ele>
<time>2014-11-16T10:02:57Z</time>
</trkpt>
<trkpt lat="49.17078098" lon="19.53139261">
<ele>751.06</ele>
<time>2014-11-16T10:03:08Z</time>
</trkpt>
<trkpt lat="49.17057075" lon="19.53138454">
<ele>752.63</ele>
<time>2014-11-16T10:03:18Z</time>
</trkpt>
<trkpt lat="49.17037737" lon="19.53131668">
<ele>749.61</ele>
<time>2014-11-16T10:03:26Z</time>
</trkpt>
<trkpt lat="49.17018384" lon="19.53127841">
<ele>748.12</ele>
<time>2014-11-16T10:03:35Z</time>
</trkpt>
<trkpt lat="49.16999815" lon="19.5311813">
<ele>747.40</ele>
<time>2014-11-16T10:03:44Z</time>
</trkpt>
<trkpt lat="49.1698118" lon="19.53117294">
<ele>747.29</ele>
<time>2014-11-16T10:03:53Z</time>
</trkpt>
<trkpt lat="49.16963016" lon="19.53116502">
<ele>746.73</ele>
<time>2014-11-16T10:03:59Z</time>
</trkpt>
<trkpt lat="49.16901365" lon="19.5311483">
<ele>743.62</ele>
<time>2014-11-16T10:04:32Z</time>
</trkpt>
<trkpt lat="49.16882758" lon="19.5311272">
<ele>746.95</ele>
<time>2014-11-16T10:04:36Z</time>
</trkpt>
<trkpt lat="49.16865009" lon="19.53104917">
<ele>733.59</ele>
<time>2014-11-16T10:04:42Z</time>
</trkpt>
<trkpt lat="49.16852689" lon="19.53082375">
<ele>727.02</ele>
<time>2014-11-16T10:04:50Z</time>
</trkpt>
<trkpt lat="49.16833461" lon="19.5307536">
<ele>728.69</ele>
<time>2014-11-16T10:04:57Z</time>
</trkpt>
<trkpt lat="49.16820198" lon="19.53056139">
<ele>729.47</ele>
<time>2014-11-16T10:05:08Z</time>
</trkpt>
<trkpt lat="49.16802334" lon="19.53048481">
<ele>728.14</ele>
<time>2014-11-16T10:05:15Z</time>
</trkpt>
<trkpt lat="49.1678524" lon="19.5303854">
<ele>728.12</ele>
<time>2014-11-16T10:05:26Z</time>
</trkpt>
<trkpt lat="49.16766795" lon="19.53031204">
<ele>727.64</ele>
<time>2014-11-16T10:05:31Z</time>
</trkpt>
<trkpt lat="49.1674953" lon="19.53019694">
<ele>727.29</ele>
<time>2014-11-16T10:05:38Z</time>
</trkpt>
<trkpt lat="49.16731898" lon="19.53003879">
<ele>723.90</ele>
<time>2014-11-16T10:05:46Z</time>
</trkpt>
<trkpt lat="49.16713612" lon="19.52993641">
<ele>720.85</ele>
<time>2014-11-16T10:05:55Z</time>
</trkpt>
<trkpt lat="49.16703753" lon="19.52969764">
<ele>715.31</ele>
<time>2014-11-16T10:06:02Z</time>
</trkpt>
<trkpt lat="49.1668538" lon="19.52965718">
<ele>711.55</ele>
<time>2014-11-16T10:06:10Z</time>
</trkpt>
<trkpt lat="49.1666941" lon="19.52951031">
<ele>709.31</ele>
<time>2014-11-16T10:06:18Z</time>
</trkpt>
<trkpt lat="49.16658443" lon="19.52925868">
<ele>705.80</ele>
<time>2014-11-16T10:06:26Z</time>
</trkpt>
<trkpt lat="49.16644509" lon="19.52906163">
<ele>699.81</ele>
<time>2014-11-16T10:06:33Z</time>
</trkpt>
<trkpt lat="49.16625511" lon="19.52892394">
<ele>693.76</ele>
<time>2014-11-16T10:06:44Z</time>
</trkpt>
<trkpt lat="49.16611843" lon="19.52871775">
<ele>687.91</ele>
<time>2014-11-16T10:06:54Z</time>
</trkpt>
<trkpt lat="49.16594936" lon="19.52857043">
<ele>683.85</ele>
<time>2014-11-16T10:07:02Z</time>
</trkpt>
<trkpt lat="49.16579508" lon="19.52839844">
<ele>681.65</ele>
<time>2014-11-16T10:07:10Z</time>
</trkpt>
<trkpt lat="49.16564711" lon="19.52822511">
<ele>677.96</ele>
<time>2014-11-16T10:07:18Z</time>
</trkpt>
<trkpt lat="49.16548886" lon="19.52807522">
<ele>678.02</ele>
<time>2014-11-16T10:07:26Z</time>
</trkpt>
<trkpt lat="49.16528716" lon="19.52794057">
<ele>673.71</ele>
<time>2014-11-16T10:07:35Z</time>
</trkpt>
<trkpt lat="49.16514737" lon="19.52773713">
<ele>669.31</ele>
<time>2014-11-16T10:07:44Z</time>
</trkpt>
<trkpt lat="49.16503446" lon="19.52747363">
<ele>667.99</ele>
<time>2014-11-16T10:07:52Z</time>
</trkpt>
<trkpt lat="49.1649817" lon="19.52718949">
<ele>668.08</ele>
<time>2014-11-16T10:08:04Z</time>
</trkpt>
<trkpt lat="49.1649198" lon="19.52692995">
<ele>668.95</ele>
<time>2014-11-16T10:08:15Z</time>
</trkpt>
<trkpt lat="49.16483024" lon="19.52664778">
<ele>671.40</ele>
<time>2014-11-16T10:08:26Z</time>
</trkpt>
<trkpt lat="49.16480681" lon="19.52636797">
<ele>674.34</ele>
<time>2014-11-16T10:08:43Z</time>
</trkpt>
<trkpt lat="49.1647074" lon="19.52610862">
<ele>678.77</ele>
<time>2014-11-16T10:08:58Z</time>
</trkpt>
<trkpt lat="49.16470958" lon="19.52536416">
<ele>685.05</ele>
<time>2014-11-16T10:09:33Z</time>
</trkpt>
<trkpt lat="49.16457099" lon="19.52516118">
<ele>696.46</ele>
<time>2014-11-16T10:09:53Z</time>
</trkpt>
<trkpt lat="49.16451319" lon="19.52489474">
<ele>700.63</ele>
<time>2014-11-16T10:10:11Z</time>
</trkpt>
<trkpt lat="49.16441809" lon="19.52464611">
<ele>700.62</ele>
<time>2014-11-16T10:10:24Z</time>
</trkpt>
<trkpt lat="49.16443484" lon="19.52436871">
<ele>702.27</ele>
<time>2014-11-16T10:10:36Z</time>
</trkpt>
<trkpt lat="49.16435354" lon="19.52410518">
<ele>701.95</ele>
<time>2014-11-16T10:10:50Z</time>
</trkpt>
<trkpt lat="49.16435759" lon="19.52381875">
<ele>702.85</ele>
<time>2014-11-16T10:11:00Z</time>
</trkpt>
<trkpt lat="49.16429471" lon="19.52355451">
<ele>706.32</ele>
<time>2014-11-16T10:11:11Z</time>
</trkpt>
<trkpt lat="49.16421996" lon="19.52329721">
<ele>704.77</ele>
<time>2014-11-16T10:11:21Z</time>
</trkpt>
<trkpt lat="49.16407914" lon="19.52311623">
<ele>704.42</ele>
<time>2014-11-16T10:11:28Z</time>
</trkpt>
<trkpt lat="49.16398891" lon="19.52287146">
<ele>703.01</ele>
<time>2014-11-16T10:11:35Z</time>
</trkpt>
<trkpt lat="49.16390148" lon="19.52261467">
<ele>703.74</ele>
<time>2014-11-16T10:11:46Z</time>
</trkpt>
<trkpt lat="49.16380804" lon="19.52235944">
<ele>704.08</ele>
<time>2014-11-16T10:11:56Z</time>
</trkpt>
<trkpt lat="49.16369868" lon="19.52210804">
<ele>704.67</ele>
<time>2014-11-16T10:12:04Z</time>
</trkpt>
<trkpt lat="49.16364682" lon="19.52183896">
<ele>700.23</ele>
<time>2014-11-16T10:12:13Z</time>
</trkpt>
<trkpt lat="49.16353846" lon="19.52161105">
<ele>703.13</ele>
<time>2014-11-16T10:12:22Z</time>
</trkpt>
<trkpt lat="49.16345244" lon="19.52136507">
<ele>705.03</ele>
<time>2014-11-16T10:12:32Z</time>
</trkpt>
<trkpt lat="49.1633763" lon="19.52109804">
<ele>705.78</ele>
<time>2014-11-16T10:12:42Z</time>
</trkpt>
<trkpt lat="49.16328013" lon="19.52084993">
<ele>709.40</ele>
<time>2014-11-16T10:12:52Z</time>
</trkpt>
<trkpt lat="49.16316351" lon="19.52061536">
<ele>713.05</ele>
<time>2014-11-16T10:13:03Z</time>
</trkpt>
<trkpt lat="49.16303113" lon="19.52042829">
<ele>713.80</ele>
<time>2014-11-16T10:13:11Z</time>
</trkpt>
<trkpt lat="49.16292899" lon="19.52019461">
<ele>714.17</ele>
<time>2014-11-16T10:13:19Z</time>
</trkpt>
<trkpt lat="49.16284088" lon="19.51993613">
<ele>711.76</ele>
<time>2014-11-16T10:13:27Z</time>
</trkpt>
<trkpt lat="49.16270367" lon="19.51972797">
<ele>709.99</ele>
<time>2014-11-16T10:13:36Z</time>
</trkpt>
<trkpt lat="49.16261115" lon="19.5194718">
<ele>705.01</ele>
<time>2014-11-16T10:13:44Z</time>
</trkpt>
<trkpt lat="49.16255012" lon="19.51917388">
<ele>705.16</ele>
<time>2014-11-16T10:13:52Z</time>
</trkpt>
<trkpt lat="49.16252958" lon="19.51886676">
<ele>707.51</ele>
<time>2014-11-16T10:14:02Z</time>
</trkpt>
<trkpt lat="49.16244574" lon="19.51861435">
<ele>708.36</ele>
<time>2014-11-16T10:14:13Z</time>
</trkpt>
<trkpt lat="49.16238882" lon="19.51833391">
<ele>708.72</ele>
<time>2014-11-16T10:14:26Z</time>
</trkpt>
<trkpt lat="49.16235149" lon="19.51803486">
<ele>708.85</ele>
<time>2014-11-16T10:14:34Z</time>
</trkpt>
<trkpt lat="49.16223328" lon="19.51780879">
<ele>713.95</ele>
<time>2014-11-16T10:14:46Z</time>
</trkpt>
<trkpt lat="49.16220643" lon="19.51751853">
<ele>720.57</ele>
<time>2014-11-16T10:14:56Z</time>
</trkpt>
<trkpt lat="49.16208242" lon="19.51727335">
<ele>721.36</ele>
<time>2014-11-16T10:15:10Z</time>
</trkpt>
<trkpt lat="49.16202922" lon="19.51700879">
<ele>725.03</ele>
<time>2014-11-16T10:15:19Z</time>
</trkpt>
<trkpt lat="49.16192104" lon="19.51677802">
<ele>725.41</ele>
<time>2014-11-16T10:15:34Z</time>
</trkpt>
<trkpt lat="49.16180659" lon="19.51656227">
<ele>727.91</ele>
<time>2014-11-16T10:15:43Z</time>
</trkpt>
<trkpt lat="49.16177986" lon="19.51629047">
<ele>728.78</ele>
<time>2014-11-16T10:15:49Z</time>
</trkpt>
<trkpt lat="49.16160246" lon="19.51618534">
<ele>729.62</ele>
<time>2014-11-16T10:16:00Z</time>
</trkpt>
<trkpt lat="49.1614681" lon="19.5159629">
<ele>729.65</ele>
<time>2014-11-16T10:16:09Z</time>
</trkpt>
<trkpt lat="49.16136562" lon="19.51573413">
<ele>729.07</ele>
<time>2014-11-16T10:16:17Z</time>
</trkpt>
<trkpt lat="49.16126916" lon="19.51547987">
<ele>728.55</ele>
<time>2014-11-16T10:16:27Z</time>
</trkpt>
<trkpt lat="49.1612188" lon="19.51519837">
<ele>726.31</ele>
<time>2014-11-16T10:16:35Z</time>
</trkpt>
<trkpt lat="49.1611239" lon="19.51494485">
<ele>724.85</ele>
<time>2014-11-16T10:16:44Z</time>
</trkpt>
<trkpt lat="49.16112526" lon="19.51466128">
<ele>725.15</ele>
<time>2014-11-16T10:16:53Z</time>
</trkpt>
<trkpt lat="49.16115272" lon="19.51438955">
<ele>730.91</ele>
<time>2014-11-16T10:17:04Z</time>
</trkpt>
<trkpt lat="49.16113301" lon="19.51410774">
<ele>732.01</ele>
<time>2014-11-16T10:17:15Z</time>
</trkpt>
<trkpt lat="49.16094602" lon="19.51399586">
<ele>734.17</ele>
<time>2014-11-16T10:17:25Z</time>
</trkpt>
<trkpt lat="49.16101722" lon="19.51371009">
<ele>730.78</ele>
<time>2014-11-16T10:17:37Z</time>
</trkpt>
<trkpt lat="49.16111586" lon="19.51346884">
<ele>732.63</ele>
<time>2014-11-16T10:17:52Z</time>
</trkpt>
<trkpt lat="49.16092271" lon="19.51339904">
<ele>734.75</ele>
<time>2014-11-16T10:18:05Z</time>
</trkpt>
<trkpt lat="49.16078011" lon="19.51317168">
<ele>733.55</ele>
<time>2014-11-16T10:18:15Z</time>
</trkpt>
<trkpt lat="49.16066938" lon="19.51294555">
<ele>730.23</ele>
<time>2014-11-16T10:18:23Z</time>
</trkpt>
<trkpt lat="49.1605665" lon="19.51270267">
<ele>728.57</ele>
<time>2014-11-16T10:18:32Z</time>
</trkpt>
<trkpt lat="49.16047369" lon="19.51246465">
<ele>726.45</ele>
<time>2014-11-16T10:18:41Z</time>
</trkpt>
<trkpt lat="49.1604676" lon="19.51218335">
<ele>723.58</ele>
<time>2014-11-16T10:18:48Z</time>
</trkpt>
<trkpt lat="49.16041083" lon="19.51191517">
<ele>721.91</ele>
<time>2014-11-16T10:18:56Z</time>
</trkpt>
<trkpt lat="49.16031186" lon="19.51167517">
<ele>721.32</ele>
<time>2014-11-16T10:19:05Z</time>
</trkpt>
<trkpt lat="49.1602346" lon="19.51140777">
<ele>719.05</ele>
<time>2014-11-16T10:19:12Z</time>
</trkpt>
<trkpt lat="49.16015725" lon="19.51113656">
<ele>720.07</ele>
<time>2014-11-16T10:19:22Z</time>
</trkpt>
<trkpt lat="49.16012685" lon="19.51083762">
<ele>721.73</ele>
<time>2014-11-16T10:19:30Z</time>
</trkpt>
<trkpt lat="49.16016784" lon="19.51053908">
<ele>724.65</ele>
<time>2014-11-16T10:19:40Z</time>
</trkpt>
<trkpt lat="49.16022411" lon="19.51026059">
<ele>724.18</ele>
<time>2014-11-16T10:19:50Z</time>
</trkpt>
<trkpt lat="49.16026462" lon="19.50999202">
<ele>721.20</ele>
<time>2014-11-16T10:19:59Z</time>
</trkpt>
<trkpt lat="49.16025656" lon="19.5097069">
<ele>721.52</ele>
<time>2014-11-16T10:20:08Z</time>
</trkpt>
<trkpt lat="49.16029497" lon="19.50942839">
<ele>719.73</ele>
<time>2014-11-16T10:20:16Z</time>
</trkpt>
<trkpt lat="49.16032238" lon="19.50912987">
<ele>718.18</ele>
<time>2014-11-16T10:20:25Z</time>
</trkpt>
<trkpt lat="49.16037581" lon="19.50885242">
<ele>715.32</ele>
<time>2014-11-16T10:20:33Z</time>
</trkpt>
<trkpt lat="49.16039922" lon="19.50856011">
<ele>712.33</ele>
<time>2014-11-16T10:20:41Z</time>
</trkpt>
<trkpt lat="49.16042855" lon="19.50826808">
<ele>710.44</ele>
<time>2014-11-16T10:20:49Z</time>
</trkpt>
<trkpt lat="49.16042123" lon="19.50795748">
<ele>706.64</ele>
<time>2014-11-16T10:20:58Z</time>
</trkpt>
<trkpt lat="49.16042567" lon="19.50765618">
<ele>707.61</ele>
<time>2014-11-16T10:21:06Z</time>
</trkpt>
<trkpt lat="49.16038592" lon="19.50736579">
<ele>708.61</ele>
<time>2014-11-16T10:21:15Z</time>
</trkpt>
<trkpt lat="49.16028462" lon="19.50709318">
<ele>709.46</ele>
<time>2014-11-16T10:21:25Z</time>
</trkpt>
<trkpt lat="49.1603199" lon="19.50680446">
<ele>712.87</ele>
<time>2014-11-16T10:21:36Z</time>
</trkpt>
<trkpt lat="49.16034768" lon="19.50652514">
<ele>712.57</ele>
<time>2014-11-16T10:21:46Z</time>
</trkpt>
<trkpt lat="49.16026496" lon="19.50627681">
<ele>709.43</ele>
<time>2014-11-16T10:21:55Z</time>
</trkpt>
<trkpt lat="49.1602103" lon="19.50601516">
<ele>705.88</ele>
<time>2014-11-16T10:22:03Z</time>
</trkpt>
<trkpt lat="49.1602186" lon="19.50573815">
<ele>699.99</ele>
<time>2014-11-16T10:22:12Z</time>
</trkpt>
<trkpt lat="49.16021575" lon="19.50546391">
<ele>696.84</ele>
<time>2014-11-16T10:22:20Z</time>
</trkpt>
<trkpt lat="49.16019601" lon="19.50518602">
<ele>697.35</ele>
<time>2014-11-16T10:22:27Z</time>
</trkpt>
<trkpt lat="49.16012942" lon="19.50492207">
<ele>697.57</ele>
<time>2014-11-16T10:22:39Z</time>
</trkpt>
<trkpt lat="49.16004243" lon="19.50467778">
<ele>699.50</ele>
<time>2014-11-16T10:22:51Z</time>
</trkpt>
<trkpt lat="49.15996972" lon="19.50439733">
<ele>694.54</ele>
<time>2014-11-16T10:23:00Z</time>
</trkpt>
<trkpt lat="49.15987429" lon="19.50412647">
<ele>690.52</ele>
<time>2014-11-16T10:23:09Z</time>
</trkpt>
<trkpt lat="49.15981158" lon="19.50386126">
<ele>690.75</ele>
<time>2014-11-16T10:23:21Z</time>
</trkpt>
<trkpt lat="49.15975288" lon="19.50359435">
<ele>688.98</ele>
<time>2014-11-16T10:23:30Z</time>
</trkpt>
<trkpt lat="49.1596976" lon="19.50332341">
<ele>687.13</ele>
<time>2014-11-16T10:23:39Z</time>
</trkpt>
<trkpt lat="49.15957655" lon="19.50307778">
<ele>683.87</ele>
<time>2014-11-16T10:23:48Z</time>
</trkpt>
<trkpt lat="49.1594655" lon="19.50284635">
<ele>681.94</ele>
<time>2014-11-16T10:23:55Z</time>
</trkpt>
<trkpt lat="49.15937995" lon="19.50258459">
<ele>678.31</ele>
<time>2014-11-16T10:24:06Z</time>
</trkpt>
<trkpt lat="49.15928827" lon="19.50232602">
<ele>678.19</ele>
<time>2014-11-16T10:24:16Z</time>
</trkpt>
<trkpt lat="49.15921176" lon="19.50206523">
<ele>677.35</ele>
<time>2014-11-16T10:24:25Z</time>
</trkpt>
<trkpt lat="49.15911823" lon="19.50182065">
<ele>676.90</ele>
<time>2014-11-16T10:24:37Z</time>
</trkpt>
<trkpt lat="49.15899531" lon="19.5015705">
<ele>675.26</ele>
<time>2014-11-16T10:24:47Z</time>
</trkpt>
<trkpt lat="49.1589182" lon="19.50129619">
<ele>674.07</ele>
<time>2014-11-16T10:24:56Z</time>
</trkpt>
<trkpt lat="49.15883617" lon="19.50104083">
<ele>673.07</ele>
<time>2014-11-16T10:25:07Z</time>
</trkpt>
<trkpt lat="49.1587649" lon="19.50074325">
<ele>669.61</ele>
<time>2014-11-16T10:25:17Z</time>
</trkpt>
<trkpt lat="49.15872451" lon="19.50047411">
<ele>667.06</ele>
<time>2014-11-16T10:25:25Z</time>
</trkpt>
<trkpt lat="49.15859616" lon="19.50025906">
<ele>666.85</ele>
<time>2014-11-16T10:25:38Z</time>
</trkpt>
<trkpt lat="49.15845043" lon="19.50005613">
<ele>664.02</ele>
<time>2014-11-16T10:25:48Z</time>
</trkpt>
<trkpt lat="49.15837099" lon="19.49979262">
<ele>662.23</ele>
<time>2014-11-16T10:25:57Z</time>
</trkpt>
<trkpt lat="49.15824294" lon="19.4995819">
<ele>662.29</ele>
<time>2014-11-16T10:27:36Z</time>
</trkpt>
<trkpt lat="49.15816448" lon="19.4992978">
<ele>658.68</ele>
<time>2014-11-16T10:27:47Z</time>
</trkpt>
<trkpt lat="49.15808572" lon="19.49904406">
<ele>654.70</ele>
<time>2014-11-16T10:27:57Z</time>
</trkpt>
<trkpt lat="49.15801151" lon="19.49877352">
<ele>650.94</ele>
<time>2014-11-16T10:28:07Z</time>
</trkpt>
<trkpt lat="49.1579686" lon="19.49850247">
<ele>647.86</ele>
<time>2014-11-16T10:28:15Z</time>
</trkpt>
<trkpt lat="49.15794625" lon="19.49819539">
<ele>643.20</ele>
<time>2014-11-16T10:28:24Z</time>
</trkpt>
<trkpt lat="49.15793856" lon="19.49787676">
<ele>638.29</ele>
<time>2014-11-16T10:28:32Z</time>
</trkpt>
<trkpt lat="49.1580643" lon="19.49763992">
<ele>638.74</ele>
<time>2014-11-16T10:28:39Z</time>
</trkpt>
<trkpt lat="49.15826544" lon="19.49762066">
<ele>638.88</ele>
<time>2014-11-16T10:28:49Z</time>
</trkpt>
<trkpt lat="49.15845257" lon="19.49755699">
<ele>641.28</ele>
<time>2014-11-16T10:28:57Z</time>
</trkpt>
<trkpt lat="49.15864109" lon="19.4975821">
<ele>641.99</ele>
<time>2014-11-16T10:29:05Z</time>
</trkpt>
<trkpt lat="49.15883284" lon="19.4976016">
<ele>643.37</ele>
<time>2014-11-16T10:29:14Z</time>
</trkpt>
<trkpt lat="49.15902575" lon="19.49752842">
<ele>647.78</ele>
<time>2014-11-16T10:29:23Z</time>
</trkpt>
<trkpt lat="49.15921826" lon="19.49751476">
<ele>650.65</ele>
<time>2014-11-16T10:29:33Z</time>
</trkpt>
<trkpt lat="49.15938371" lon="19.49739344">
<ele>649.34</ele>
<time>2014-11-16T10:29:39Z</time>
</trkpt>
<trkpt lat="49.15946311" lon="19.49713781">
<ele>644.86</ele>
<time>2014-11-16T10:29:48Z</time>
</trkpt>
<trkpt lat="49.15961412" lon="19.49693994">
<ele>643.40</ele>
<time>2014-11-16T10:29:54Z</time>
</trkpt>
<trkpt lat="49.15971479" lon="19.49670661">
<ele>644.18</ele>
<time>2014-11-16T10:30:03Z</time>
</trkpt>
<trkpt lat="49.15980523" lon="19.49644257">
<ele>642.97</ele>
<time>2014-11-16T10:30:11Z</time>
</trkpt>
<trkpt lat="49.15989016" lon="19.49618016">
<ele>642.91</ele>
<time>2014-11-16T10:30:20Z</time>
</trkpt>
<trkpt lat="49.16000057" lon="19.49593301">
<ele>646.38</ele>
<time>2014-11-16T10:30:29Z</time>
</trkpt>
<trkpt lat="49.16010446" lon="19.49569112">
<ele>652.65</ele>
<time>2014-11-16T10:30:38Z</time>
</trkpt>
<trkpt lat="49.16017612" lon="19.49542924">
<ele>655.23</ele>
<time>2014-11-16T10:30:47Z</time>
</trkpt>
<trkpt lat="49.160236" lon="19.49516946">
<ele>654.05</ele>
<time>2014-11-16T10:30:56Z</time>
</trkpt>
<trkpt lat="49.16017637" lon="19.49490767">
<ele>656.23</ele>
<time>2014-11-16T10:31:04Z</time>
</trkpt>
<trkpt lat="49.16023972" lon="19.49464399">
<ele>656.79</ele>
<time>2014-11-16T10:31:12Z</time>
</trkpt>
<trkpt lat="49.16033308" lon="19.49438905">
<ele>656.45</ele>
<time>2014-11-16T10:31:27Z</time>
</trkpt>
<trkpt lat="49.16049049" lon="19.49423419">
<ele>656.81</ele>
<time>2014-11-16T10:31:41Z</time>
</trkpt>
<trkpt lat="49.1606729" lon="19.49415602">
<ele>656.69</ele>
<time>2014-11-16T10:31:55Z</time>
</trkpt>
<trkpt lat="49.16085526" lon="19.49406221">
<ele>656.83</ele>
<time>2014-11-16T10:32:16Z</time>
</trkpt>
<trkpt lat="49.16104713" lon="19.49396588">
<ele>656.81</ele>
<time>2014-11-16T10:32:21Z</time>
</trkpt>
<trkpt lat="49.16121925" lon="19.49412853">
<ele>661.11</ele>
<time>2014-11-16T10:33:26Z</time>
</trkpt>
<trkpt lat="49.16139884" lon="19.49396818">
<ele>672.41</ele>
<time>2014-11-16T10:33:32Z</time>
</trkpt>
<trkpt lat="49.16156498" lon="19.49374855">
<ele>683.56</ele>
<time>2014-11-16T10:33:42Z</time>
</trkpt>
<trkpt lat="49.16172116" lon="19.4935443">
<ele>678.61</ele>
<time>2014-11-16T10:33:50Z</time>
</trkpt>
<trkpt lat="49.16183765" lon="19.49329936">
<ele>671.86</ele>
<time>2014-11-16T10:33:58Z</time>
</trkpt>
<trkpt lat="49.16195672" lon="19.49307283">
<ele>670.38</ele>
<time>2014-11-16T10:34:09Z</time>
</trkpt>
<trkpt lat="49.16190051" lon="19.49277532">
<ele>681.45</ele>
<time>2014-11-16T10:34:22Z</time>
</trkpt>
<trkpt lat="49.16171335" lon="19.49265737">
<ele>683.71</ele>
<time>2014-11-16T10:34:26Z</time>
</trkpt>
<trkpt lat="49.16164501" lon="19.49239241">
<ele>685.60</ele>
<time>2014-11-16T10:34:36Z</time>
</trkpt>
<trkpt lat="49.16158095" lon="19.49212507">
<ele>682.87</ele>
<time>2014-11-16T10:34:52Z</time>
</trkpt>
<trkpt lat="49.16158913" lon="19.49183934">
<ele>686.48</ele>
<time>2014-11-16T10:35:01Z</time>
</trkpt>
<trkpt lat="49.16153545" lon="19.49155325">
<ele>688.82</ele>
<time>2014-11-16T10:35:13Z</time>
</trkpt>
<trkpt lat="49.16148911" lon="19.49127468">
<ele>688.50</ele>
<time>2014-11-16T10:35:25Z</time>
</trkpt>
<trkpt lat="49.16151924" lon="19.49096024">
<ele>686.97</ele>
<time>2014-11-16T10:35:43Z</time>
</trkpt>
<trkpt lat="49.16161407" lon="19.49072267">
<ele>689.26</ele>
<time>2014-11-16T10:35:56Z</time>
</trkpt>
<trkpt lat="49.16175279" lon="19.49048611">
<ele>700.52</ele>
<time>2014-11-16T10:36:18Z</time>
</trkpt>
<trkpt lat="49.1618743" lon="19.49027281">
<ele>703.96</ele>
<time>2014-11-16T10:36:27Z</time>
</trkpt>
<trkpt lat="49.1620409" lon="19.49016581">
<ele>705.87</ele>
<time>2014-11-16T10:36:39Z</time>
</trkpt>
<trkpt lat="49.16221346" lon="19.49005478">
<ele>706.15</ele>
<time>2014-11-16T10:36:48Z</time>
</trkpt>
<trkpt lat="49.16237776" lon="19.48992084">
<ele>705.50</ele>
<time>2014-11-16T10:37:11Z</time>
</trkpt>
<trkpt lat="49.16257905" lon="19.48968081">
<ele>706.91</ele>
<time>2014-11-16T10:37:25Z</time>
</trkpt>
<trkpt lat="49.16278121" lon="19.48970032">
<ele>709.09</ele>
<time>2014-11-16T10:37:35Z</time>
</trkpt>
<trkpt lat="49.16296141" lon="19.48972977">
<ele>711.91</ele>
<time>2014-11-16T10:37:50Z</time>
</trkpt>
<trkpt lat="49.16308087" lon="19.48952427">
<ele>712.49</ele>
<time>2014-11-16T10:38:14Z</time>
</trkpt>
<trkpt lat="49.16328093" lon="19.48947459">
<ele>715.47</ele>
<time>2014-11-16T10:38:34Z</time>
</trkpt>
<trkpt lat="49.16343909" lon="19.48964989">
<ele>721.45</ele>
<time>2014-11-16T10:38:55Z</time>
</trkpt>
<trkpt lat="49.16358531" lon="19.48982619">
<ele>729.08</ele>
<time>2014-11-16T10:39:11Z</time>
</trkpt>
<trkpt lat="49.16376668" lon="19.48984595">
<ele>730.16</ele>
<time>2014-11-16T10:39:28Z</time>
</trkpt>
<trkpt lat="49.16394261" lon="19.48972925">
<ele>732.18</ele>
<time>2014-11-16T10:39:37Z</time>
</trkpt>
<trkpt lat="49.16412745" lon="19.48974704">
<ele>733.48</ele>
<time>2014-11-16T10:39:52Z</time>
</trkpt>
<trkpt lat="49.16430465" lon="19.48982118">
<ele>735.56</ele>
<time>2014-11-16T10:40:04Z</time>
</trkpt>
<trkpt lat="49.16448446" lon="19.48975767">
<ele>736.87</ele>
<time>2014-11-16T10:40:20Z</time>
</trkpt>
<trkpt lat="49.16466937" lon="19.48967661">
<ele>730.77</ele>
<time>2014-11-16T10:40:43Z</time>
</trkpt>
<trkpt lat="49.16481422" lon="19.48950436">
<ele>723.74</ele>
<time>2014-11-16T10:41:01Z</time>
</trkpt>
<trkpt lat="49.16491824" lon="19.48927574">
<ele>721.56</ele>
<time>2014-11-16T10:41:17Z</time>
</trkpt>
<trkpt lat="49.16506801" lon="19.48911147">
<ele>725.96</ele>
<time>2014-11-16T10:41:34Z</time>
</trkpt>
<trkpt lat="49.16525428" lon="19.48906166">
<ele>729.22</ele>
<time>2014-11-16T10:41:49Z</time>
</trkpt>
<trkpt lat="49.16545549" lon="19.48915709">
<ele>731.71</ele>
<time>2014-11-16T10:42:02Z</time>
</trkpt>
<trkpt lat="49.16562394" lon="19.48905219">
<ele>734.72</ele>
<time>2014-11-16T10:42:21Z</time>
</trkpt>
<trkpt lat="49.16615816" lon="19.48870393">
<ele>733.88</ele>
<time>2014-11-16T10:43:02Z</time>
</trkpt>
<trkpt lat="49.16634326" lon="19.48881767">
<ele>738.38</ele>
<time>2014-11-16T10:43:07Z</time>
</trkpt>
<trkpt lat="49.16654149" lon="19.48892735">
<ele>738.79</ele>
<time>2014-11-16T10:43:20Z</time>
</trkpt>
<trkpt lat="49.16671573" lon="19.48883893">
<ele>739.36</ele>
<time>2014-11-16T10:43:32Z</time>
</trkpt>
<trkpt lat="49.16690054" lon="19.48878051">
<ele>733.09</ele>
<time>2014-11-16T10:43:56Z</time>
</trkpt>
<trkpt lat="49.167025" lon="19.48857299">
<ele>732.28</ele>
<time>2014-11-16T10:44:12Z</time>
</trkpt>
<trkpt lat="49.16720728" lon="19.48852327">
<ele>734.54</ele>
<time>2014-11-16T10:44:27Z</time>
</trkpt>
<trkpt lat="49.16739481" lon="19.48854851">
<ele>735.88</ele>
<time>2014-11-16T10:44:41Z</time>
</trkpt>
<trkpt lat="49.16757682" lon="19.48856319">
<ele>736.03</ele>
<time>2014-11-16T10:44:58Z</time>
</trkpt>
<trkpt lat="49.1677667" lon="19.48853198">
<ele>737.67</ele>
<time>2014-11-16T10:45:14Z</time>
</trkpt>
<trkpt lat="49.16792669" lon="19.48836439">
<ele>735.96</ele>
<time>2014-11-16T10:45:24Z</time>
</trkpt>
<trkpt lat="49.1681199" lon="19.4883503">
<ele>732.07</ele>
<time>2014-11-16T10:45:38Z</time>
</trkpt>
<trkpt lat="49.16830419" lon="19.48847936">
<ele>732.35</ele>
<time>2014-11-16T10:45:50Z</time>
</trkpt>
<trkpt lat="49.16848782" lon="19.48847222">
<ele>735.67</ele>
<time>2014-11-16T10:46:12Z</time>
</trkpt>
<trkpt lat="49.16866766" lon="19.48841136">
<ele>740.90</ele>
<time>2014-11-16T10:46:26Z</time>
</trkpt>
<trkpt lat="49.16884559" lon="19.48834696">
<ele>741.54</ele>
<time>2014-11-16T10:46:35Z</time>
</trkpt>
<trkpt lat="49.16901745" lon="19.48824021">
<ele>746.64</ele>
<time>2014-11-16T10:46:57Z</time>
</trkpt>
<trkpt lat="49.17544647" lon="19.48601133">
<ele>778.49</ele>
<time>2014-11-16T10:57:27Z</time>
</trkpt>
<trkpt lat="49.17563213" lon="19.48602515">
<ele>809.15</ele>
<time>2014-11-16T10:57:47Z</time>
</trkpt>
<trkpt lat="49.17582472" lon="19.48597527">
<ele>808.37</ele>
<time>2014-11-16T10:58:00Z</time>
</trkpt>
<trkpt lat="49.17598339" lon="19.48615269">
<ele>808.09</ele>
<time>2014-11-16T10:58:14Z</time>
</trkpt>
<trkpt lat="49.17616004" lon="19.48630069">
<ele>806.76</ele>
<time>2014-11-16T10:58:25Z</time>
</trkpt>
<trkpt lat="49.17620423" lon="19.48658331">
<ele>804.55</ele>
<time>2014-11-16T10:58:42Z</time>
</trkpt>
<trkpt lat="49.17628821" lon="19.48684796">
<ele>803.74</ele>
<time>2014-11-16T10:58:52Z</time>
</trkpt>
<trkpt lat="49.17633959" lon="19.48712683">
<ele>804.80</ele>
<time>2014-11-16T10:59:02Z</time>
</trkpt>
<trkpt lat="49.17628815" lon="19.48741087">
<ele>803.68</ele>
<time>2014-11-16T10:59:11Z</time>
</trkpt>
<trkpt lat="49.17630397" lon="19.48769059">
<ele>805.55</ele>
<time>2014-11-16T10:59:22Z</time>
</trkpt>
<trkpt lat="49.17638715" lon="19.48795426">
<ele>808.51</ele>
<time>2014-11-16T10:59:42Z</time>
</trkpt>
<trkpt lat="49.17653398" lon="19.48811467">
<ele>817.97</ele>
<time>2014-11-16T11:00:03Z</time>
</trkpt>
<trkpt lat="49.1767189" lon="19.48810267">
<ele>820.55</ele>
<time>2014-11-16T11:00:13Z</time>
</trkpt>
<trkpt lat="49.17688449" lon="19.48823818">
<ele>821.61</ele>
<time>2014-11-16T11:00:24Z</time>
</trkpt>
<trkpt lat="49.17706998" lon="19.48836877">
<ele>824.48</ele>
<time>2014-11-16T11:00:39Z</time>
</trkpt>
<trkpt lat="49.17725212" lon="19.48844039">
<ele>827.32</ele>
<time>2014-11-16T11:00:50Z</time>
</trkpt>
<trkpt lat="49.17728988" lon="19.4887287">
<ele>826.29</ele>
<time>2014-11-16T11:01:01Z</time>
</trkpt>
<trkpt lat="49.17735083" lon="19.4889984">
<ele>824.05</ele>
<time>2014-11-16T11:01:13Z</time>
</trkpt>
<trkpt lat="49.17774706" lon="19.48977059">
<ele>828.69</ele>
<time>2014-11-16T11:02:07Z</time>
</trkpt>
<trkpt lat="49.17790856" lon="19.48993904">
<ele>838.77</ele>
<time>2014-11-16T11:02:30Z</time>
</trkpt>
<trkpt lat="49.17804618" lon="19.49012309">
<ele>846.46</ele>
<time>2014-11-16T11:02:54Z</time>
</trkpt>
<trkpt lat="49.17817175" lon="19.49033669">
<ele>849.75</ele>
<time>2014-11-16T11:03:17Z</time>
</trkpt>
<trkpt lat="49.17820433" lon="19.49060735">
<ele>853.15</ele>
<time>2014-11-16T11:03:38Z</time>
</trkpt>
<trkpt lat="49.17837758" lon="19.49071439">
<ele>859.15</ele>
<time>2014-11-16T11:04:01Z</time>
</trkpt>
<trkpt lat="49.17847744" lon="19.49095109">
<ele>856.85</ele>
<time>2014-11-16T11:04:40Z</time>
</trkpt>
<trkpt lat="49.17865142" lon="19.49109901">
<ele>856.17</ele>
<time>2014-11-16T11:04:56Z</time>
</trkpt>
<trkpt lat="49.17883751" lon="19.49112423">
<ele>858.44</ele>
<time>2014-11-16T11:05:15Z</time>
</trkpt>
<trkpt lat="49.17925411" lon="19.49195629">
<ele>868.75</ele>
<time>2014-11-16T11:07:17Z</time>
</trkpt>
<trkpt lat="49.17940458" lon="19.49178853">
<ele>908.97</ele>
<time>2014-11-16T11:08:03Z</time>
</trkpt>
<trkpt lat="49.17961656" lon="19.49189327">
<ele>910.84</ele>
<time>2014-11-16T11:08:27Z</time>
</trkpt>
<trkpt lat="49.17980534" lon="19.49189508">
<ele>902.00</ele>
<time>2014-11-16T11:09:05Z</time>
</trkpt>
<trkpt lat="49.17996306" lon="19.49207892">
<ele>901.14</ele>
<time>2014-11-16T11:09:32Z</time>
</trkpt>
<trkpt lat="49.18013113" lon="19.4921819">
<ele>906.09</ele>
<time>2014-11-16T11:09:48Z</time>
</trkpt>
<trkpt lat="49.18023102" lon="19.49241566">
<ele>909.58</ele>
<time>2014-11-16T11:10:03Z</time>
</trkpt>
<trkpt lat="49.18032176" lon="19.49266017">
<ele>909.49</ele>
<time>2014-11-16T11:10:12Z</time>
</trkpt>
<trkpt lat="49.18039357" lon="19.49292675">
<ele>907.00</ele>
<time>2014-11-16T11:10:24Z</time>
</trkpt>
<trkpt lat="49.18045925" lon="19.49320651">
<ele>907.26</ele>
<time>2014-11-16T11:11:05Z</time>
</trkpt>
<trkpt lat="49.18041883" lon="19.49349598">
<ele>908.62</ele>
<time>2014-11-16T11:11:18Z</time>
</trkpt>
<trkpt lat="49.18046553" lon="19.49378979">
<ele>914.21</ele>
<time>2014-11-16T11:11:47Z</time>
</trkpt>
<trkpt lat="49.18059288" lon="19.49400279">
<ele>915.54</ele>
<time>2014-11-16T11:12:01Z</time>
</trkpt>
<trkpt lat="49.18071809" lon="19.49420593">
<ele>910.08</ele>
<time>2014-11-16T11:13:21Z</time>
</trkpt>
<trkpt lat="49.18089546" lon="19.49433403">
<ele>912.45</ele>
<time>2014-11-16T11:13:35Z</time>
</trkpt>
<trkpt lat="49.18105565" lon="19.4944861">
<ele>912.02</ele>
<time>2014-11-16T11:13:48Z</time>
</trkpt>
<trkpt lat="49.18121421" lon="19.49468724">
<ele>916.35</ele>
<time>2014-11-16T11:14:05Z</time>
</trkpt>
<trkpt lat="49.18135622" lon="19.49487655">
<ele>916.90</ele>
<time>2014-11-16T11:14:27Z</time>
</trkpt>
<trkpt lat="49.18150437" lon="19.49513294">
<ele>920.01</ele>
<time>2014-11-16T11:14:41Z</time>
</trkpt>
<trkpt lat="49.18166073" lon="19.49526874">
<ele>923.08</ele>
<time>2014-11-16T11:14:56Z</time>
</trkpt>
<trkpt lat="49.18181793" lon="19.49544532">
<ele>924.13</ele>
<time>2014-11-16T11:15:11Z</time>
</trkpt>
<trkpt lat="49.1819943" lon="19.49552017">
<ele>927.73</ele>
<time>2014-11-16T11:15:21Z</time>
</trkpt>
<trkpt lat="49.18209558" lon="19.49575695">
<ele>929.57</ele>
<time>2014-11-16T11:15:28Z</time>
</trkpt>
<trkpt lat="49.18218695" lon="19.49601788">
<ele>929.79</ele>
<time>2014-11-16T11:15:35Z</time>
</trkpt>
<trkpt lat="49.18230344" lon="19.49624552">
<ele>931.25</ele>
<time>2014-11-16T11:15:45Z</time>
</trkpt>
<trkpt lat="49.18248278" lon="19.49637393">
<ele>933.01</ele>
<time>2014-11-16T11:15:56Z</time>
</trkpt>
<trkpt lat="49.18257996" lon="19.49660904">
<ele>934.11</ele>
<time>2014-11-16T11:16:04Z</time>
</trkpt>
<trkpt lat="49.18271693" lon="19.49683243">
<ele>933.84</ele>
<time>2014-11-16T11:16:10Z</time>
</trkpt>
<trkpt lat="49.18285544" lon="19.49703627">
<ele>934.16</ele>
<time>2014-11-16T11:16:19Z</time>
</trkpt>
<trkpt lat="49.18298758" lon="19.49728093">
<ele>934.00</ele>
<time>2014-11-16T11:16:32Z</time>
</trkpt>
<trkpt lat="49.18316673" lon="19.49738957">
<ele>934.49</ele>
<time>2014-11-16T11:16:40Z</time>
</trkpt>
<trkpt lat="49.18333098" lon="19.49757507">
<ele>935.87</ele>
<time>2014-11-16T11:16:47Z</time>
</trkpt>
<trkpt lat="49.18349526" lon="19.49774655">
<ele>936.83</ele>
<time>2014-11-16T11:16:57Z</time>
</trkpt>
<trkpt lat="49.18363755" lon="19.49795681">
<ele>934.29</ele>
<time>2014-11-16T11:17:04Z</time>
</trkpt>
<trkpt lat="49.18378781" lon="19.49814811">
<ele>932.20</ele>
<time>2014-11-16T11:17:13Z</time>
</trkpt>
<trkpt lat="49.1839352" lon="19.49834263">
<ele>933.45</ele>
<time>2014-11-16T11:17:22Z</time>
</trkpt>
<trkpt lat="49.18406825" lon="19.49855301">
<ele>935.35</ele>
<time>2014-11-16T11:17:28Z</time>
</trkpt>
<trkpt lat="49.1841932" lon="19.49881838">
<ele>936.86</ele>
<time>2014-11-16T11:17:36Z</time>
</trkpt>
<trkpt lat="49.18429057" lon="19.49908163">
<ele>937.09</ele>
<time>2014-11-16T11:17:45Z</time>
</trkpt>
<trkpt lat="49.18435882" lon="19.49935772">
<ele>938.63</ele>
<time>2014-11-16T11:17:56Z</time>
</trkpt>
<trkpt lat="49.18439625" lon="19.49963702">
<ele>938.26</ele>
<time>2014-11-16T11:18:03Z</time>
</trkpt>
<trkpt lat="49.18447038" lon="19.49991084">
<ele>940.76</ele>
<time>2014-11-16T11:18:11Z</time>
</trkpt>
<trkpt lat="49.18460004" lon="19.50013988">
<ele>941.67</ele>
<time>2014-11-16T11:18:21Z</time>
</trkpt>
<trkpt lat="49.18471653" lon="19.50036352">
<ele>937.24</ele>
<time>2014-11-16T11:18:27Z</time>
</trkpt>
<trkpt lat="49.184825" lon="19.50058802">
<ele>938.11</ele>
<time>2014-11-16T11:18:33Z</time>
</trkpt>
<trkpt lat="49.1849885" lon="19.50072993">
<ele>938.67</ele>
<time>2014-11-16T11:18:43Z</time>
</trkpt>
<trkpt lat="49.1851107" lon="19.50104454">
<ele>938.63</ele>
<time>2014-11-16T11:18:52Z</time>
</trkpt>
<trkpt lat="49.18520674" lon="19.50133381">
<ele>937.11</ele>
<time>2014-11-16T11:19:01Z</time>
</trkpt>
<trkpt lat="49.18530328" lon="19.50158883">
<ele>936.42</ele>
<time>2014-11-16T11:19:08Z</time>
</trkpt>
<trkpt lat="49.18534462" lon="19.50189821">
<ele>938.13</ele>
<time>2014-11-16T11:19:17Z</time>
</trkpt>
<trkpt lat="49.1854409" lon="19.50216935">
<ele>938.78</ele>
<time>2014-11-16T11:19:30Z</time>
</trkpt>
<trkpt lat="49.18557027" lon="19.50236764">
<ele>938.21</ele>
<time>2014-11-16T11:19:38Z</time>
</trkpt>
<trkpt lat="49.18570869" lon="19.50259117">
<ele>937.78</ele>
<time>2014-11-16T11:19:47Z</time>
</trkpt>
<trkpt lat="49.18587052" lon="19.50273535">
<ele>937.53</ele>
<time>2014-11-16T11:20:03Z</time>
</trkpt>
<trkpt lat="49.18594247" lon="19.50300096">
<ele>937.43</ele>
<time>2014-11-16T11:20:12Z</time>
</trkpt>
<trkpt lat="49.18605476" lon="19.50321715">
<ele>934.55</ele>
<time>2014-11-16T11:20:23Z</time>
</trkpt>
<trkpt lat="49.18619684" lon="19.50338621">
<ele>935.00</ele>
<time>2014-11-16T11:20:31Z</time>
</trkpt>
<trkpt lat="49.18631052" lon="19.50361729">
<ele>934.62</ele>
<time>2014-11-16T11:20:39Z</time>
</trkpt>
<trkpt lat="49.18643065" lon="19.50383472">
<ele>934.59</ele>
<time>2014-11-16T11:20:47Z</time>
</trkpt>
<trkpt lat="49.18656003" lon="19.5040373">
<ele>934.99</ele>
<time>2014-11-16T11:20:55Z</time>
</trkpt>
<trkpt lat="49.18671718" lon="19.50418511">
<ele>936.40</ele>
<time>2014-11-16T11:21:03Z</time>
</trkpt>
<trkpt lat="49.18689895" lon="19.50431756">
<ele>935.24</ele>
<time>2014-11-16T11:21:12Z</time>
</trkpt>
<trkpt lat="49.18706513" lon="19.50444686">
<ele>940.17</ele>
<time>2014-11-16T11:21:23Z</time>
</trkpt>
<trkpt lat="49.18718687" lon="19.50468796">
<ele>937.18</ele>
<time>2014-11-16T11:21:31Z</time>
</trkpt>
<trkpt lat="49.18727291" lon="19.5049568">
<ele>934.29</ele>
<time>2014-11-16T11:21:38Z</time>
</trkpt>
<trkpt lat="49.18737715" lon="19.50518366">
<ele>935.07</ele>
<time>2014-11-16T11:21:47Z</time>
</trkpt>
<trkpt lat="49.18748095" lon="19.50541649">
<ele>933.51</ele>
<time>2014-11-16T11:22:11Z</time>
</trkpt>
<trkpt lat="49.18761883" lon="19.50561994">
<ele>934.57</ele>
<time>2014-11-16T11:22:27Z</time>
</trkpt>
<trkpt lat="49.18775367" lon="19.50583378">
<ele>934.62</ele>
<time>2014-11-16T11:22:35Z</time>
</trkpt>
<trkpt lat="49.18774422" lon="19.50612258">
<ele>933.84</ele>
<time>2014-11-16T11:22:47Z</time>
</trkpt>
<trkpt lat="49.18784053" lon="19.50637402">
<ele>931.78</ele>
<time>2014-11-16T11:22:57Z</time>
</trkpt>
<trkpt lat="49.18798341" lon="19.50658261">
<ele>928.35</ele>
<time>2014-11-16T11:23:07Z</time>
</trkpt>
<trkpt lat="49.18812599" lon="19.50680302">
<ele>926.51</ele>
<time>2014-11-16T11:23:15Z</time>
</trkpt>
<trkpt lat="49.18824954" lon="19.50702938">
<ele>926.16</ele>
<time>2014-11-16T11:23:23Z</time>
</trkpt>
<trkpt lat="49.18838121" lon="19.50721704">
<ele>926.76</ele>
<time>2014-11-16T11:23:30Z</time>
</trkpt>
<trkpt lat="49.18852498" lon="19.50740032">
<ele>925.63</ele>
<time>2014-11-16T11:23:39Z</time>
</trkpt>
<trkpt lat="49.18867789" lon="19.50755603">
<ele>926.59</ele>
<time>2014-11-16T11:23:49Z</time>
</trkpt>
<trkpt lat="49.18884228" lon="19.50767677">
<ele>927.32</ele>
<time>2014-11-16T11:23:55Z</time>
</trkpt>
<trkpt lat="49.18900843" lon="19.50786868">
<ele>924.47</ele>
<time>2014-11-16T11:24:03Z</time>
</trkpt>
<trkpt lat="49.18915765" lon="19.5080294">
<ele>923.86</ele>
<time>2014-11-16T11:24:09Z</time>
</trkpt>
<trkpt lat="49.18932075" lon="19.50825805">
<ele>919.30</ele>
<time>2014-11-16T11:24:19Z</time>
</trkpt>
<trkpt lat="49.18946232" lon="19.50846662">
<ele>915.27</ele>
<time>2014-11-16T11:24:26Z</time>
</trkpt>
<trkpt lat="49.18960133" lon="19.50866587">
<ele>912.97</ele>
<time>2014-11-16T11:24:35Z</time>
</trkpt>
<trkpt lat="49.18971413" lon="19.50889101">
<ele>907.79</ele>
<time>2014-11-16T11:24:42Z</time>
</trkpt>
<trkpt lat="49.1898376" lon="19.50912767">
<ele>906.73</ele>
<time>2014-11-16T11:24:51Z</time>
</trkpt>
<trkpt lat="49.18993822" lon="19.50939267">
<ele>905.22</ele>
<time>2014-11-16T11:24:58Z</time>
</trkpt>
<trkpt lat="49.19006872" lon="19.50958198">
<ele>902.95</ele>
<time>2014-11-16T11:25:08Z</time>
</trkpt>
<trkpt lat="49.19019626" lon="19.50977971">
<ele>901.20</ele>
<time>2014-11-16T11:25:16Z</time>
</trkpt>
<trkpt lat="49.19034162" lon="19.50998537">
<ele>900.59</ele>
<time>2014-11-16T11:25:24Z</time>
</trkpt>
<trkpt lat="49.19047369" lon="19.51024908">
<ele>895.75</ele>
<time>2014-11-16T11:25:35Z</time>
</trkpt>
<trkpt lat="49.19060845" lon="19.51044508">
<ele>893.68</ele>
<time>2014-11-16T11:25:43Z</time>
</trkpt>
<trkpt lat="49.19074995" lon="19.51066121">
<ele>887.72</ele>
<time>2014-11-16T11:25:52Z</time>
</trkpt>
<trkpt lat="49.19087237" lon="19.51091336">
<ele>884.05</ele>
<time>2014-11-16T11:26:00Z</time>
</trkpt>
<trkpt lat="49.19101663" lon="19.51112459">
<ele>881.32</ele>
<time>2014-11-16T11:26:08Z</time>
</trkpt>
<trkpt lat="49.19112633" lon="19.51137323">
<ele>874.27</ele>
<time>2014-11-16T11:26:18Z</time>
</trkpt>
<trkpt lat="49.19124305" lon="19.51161476">
<ele>873.12</ele>
<time>2014-11-16T11:26:29Z</time>
</trkpt>
<trkpt lat="49.19138691" lon="19.51178654">
<ele>870.33</ele>
<time>2014-11-16T11:26:36Z</time>
</trkpt>
<trkpt lat="49.1915116" lon="19.51199756">
<ele>867.62</ele>
<time>2014-11-16T11:26:43Z</time>
</trkpt>
<trkpt lat="49.19163197" lon="19.51225343">
<ele>864.64</ele>
<time>2014-11-16T11:26:49Z</time>
</trkpt>
<trkpt lat="49.1917472" lon="19.51253621">
<ele>861.17</ele>
<time>2014-11-16T11:26:56Z</time>
</trkpt>
<trkpt lat="49.19185181" lon="19.51276681">
<ele>859.02</ele>
<time>2014-11-16T11:27:03Z</time>
</trkpt>
<trkpt lat="49.19200302" lon="19.51296835">
<ele>855.69</ele>
<time>2014-11-16T11:27:13Z</time>
</trkpt>
<trkpt lat="49.19212951" lon="19.51317504">
<ele>855.22</ele>
<time>2014-11-16T11:27:21Z</time>
</trkpt>
<trkpt lat="49.19220396" lon="19.5134359">
<ele>852.74</ele>
<time>2014-11-16T11:27:29Z</time>
</trkpt>
<trkpt lat="49.19235417" lon="19.51360938">
<ele>851.50</ele>
<time>2014-11-16T11:27:36Z</time>
</trkpt>
<trkpt lat="49.19250567" lon="19.51376479">
<ele>850.04</ele>
<time>2014-11-16T11:27:42Z</time>
</trkpt>
<trkpt lat="49.19265533" lon="19.51396524">
<ele>847.44</ele>
<time>2014-11-16T11:27:49Z</time>
</trkpt>
<trkpt lat="49.19277803" lon="19.51417836">
<ele>846.70</ele>
<time>2014-11-16T11:27:58Z</time>
</trkpt>
<trkpt lat="49.19293626" lon="19.5143565">
<ele>846.89</ele>
<time>2014-11-16T11:28:07Z</time>
</trkpt>
<trkpt lat="49.19307812" lon="19.51453265">
<ele>847.17</ele>
<time>2014-11-16T11:28:15Z</time>
</trkpt>
<trkpt lat="49.19320849" lon="19.51473933">
<ele>844.72</ele>
<time>2014-11-16T11:28:21Z</time>
</trkpt>
<trkpt lat="49.19330196" lon="19.51501277">
<ele>843.96</ele>
<time>2014-11-16T11:28:30Z</time>
</trkpt>
<trkpt lat="49.19340058" lon="19.5152838">
<ele>844.48</ele>
<time>2014-11-16T11:28:37Z</time>
</trkpt>
<trkpt lat="49.19348668" lon="19.51554133">
<ele>842.76</ele>
<time>2014-11-16T11:28:45Z</time>
</trkpt>
<trkpt lat="49.19356796" lon="19.51579431">
<ele>842.51</ele>
<time>2014-11-16T11:28:54Z</time>
</trkpt>
<trkpt lat="49.19360336" lon="19.51606527">
<ele>841.90</ele>
<time>2014-11-16T11:29:01Z</time>
</trkpt>
<trkpt lat="49.19367268" lon="19.5163528">
<ele>839.36</ele>
<time>2014-11-16T11:29:09Z</time>
</trkpt>
<trkpt lat="49.19370941" lon="19.51665602">
<ele>840.04</ele>
<time>2014-11-16T11:29:17Z</time>
</trkpt>
<trkpt lat="49.19375466" lon="19.51693989">
<ele>834.78</ele>
<time>2014-11-16T11:29:25Z</time>
</trkpt>
<trkpt lat="49.19380295" lon="19.51726295">
<ele>830.72</ele>
<time>2014-11-16T11:29:34Z</time>
</trkpt>
<trkpt lat="49.19390015" lon="19.51756801">
<ele>828.96</ele>
<time>2014-11-16T11:29:42Z</time>
</trkpt>
<trkpt lat="49.19400292" lon="19.5178164">
<ele>826.38</ele>
<time>2014-11-16T11:29:50Z</time>
</trkpt>
<trkpt lat="49.19404973" lon="19.51809309">
<ele>824.98</ele>
<time>2014-11-16T11:30:00Z</time>
</trkpt>
<trkpt lat="49.19420173" lon="19.51826107">
<ele>824.94</ele>
<time>2014-11-16T11:30:08Z</time>
</trkpt>
<trkpt lat="49.19430934" lon="19.518498">
<ele>823.34</ele>
<time>2014-11-16T11:30:13Z</time>
</trkpt>
<trkpt lat="49.19442279" lon="19.51874473">
<ele>822.44</ele>
<time>2014-11-16T11:30:24Z</time>
</trkpt>
<trkpt lat="49.19454851" lon="19.51897716">
<ele>821.76</ele>
<time>2014-11-16T11:30:31Z</time>
</trkpt>
<trkpt lat="49.19468806" lon="19.51918296">
<ele>820.97</ele>
<time>2014-11-16T11:30:38Z</time>
</trkpt>
<trkpt lat="49.19482337" lon="19.51939341">
<ele>817.39</ele>
<time>2014-11-16T11:30:47Z</time>
</trkpt>
<trkpt lat="49.19497115" lon="19.51962319">
<ele>815.46</ele>
<time>2014-11-16T11:30:55Z</time>
</trkpt>
<trkpt lat="49.19508089" lon="19.5198646">
<ele>813.11</ele>
<time>2014-11-16T11:31:04Z</time>
</trkpt>
<trkpt lat="49.19521714" lon="19.52006602">
<ele>813.88</ele>
<time>2014-11-16T11:31:12Z</time>
</trkpt>
<trkpt lat="49.19539501" lon="19.52019194">
<ele>813.42</ele>
<time>2014-11-16T11:31:21Z</time>
</trkpt>
<trkpt lat="49.19557754" lon="19.52021439">
<ele>811.90</ele>
<time>2014-11-16T11:31:27Z</time>
</trkpt>
<trkpt lat="49.19575794" lon="19.5202459">
<ele>810.32</ele>
<time>2014-11-16T11:31:34Z</time>
</trkpt>
<trkpt lat="49.19596055" lon="19.52021652">
<ele>809.13</ele>
<time>2014-11-16T11:31:42Z</time>
</trkpt>
<trkpt lat="49.19615489" lon="19.52031409">
<ele>808.59</ele>
<time>2014-11-16T11:31:49Z</time>
</trkpt>
<trkpt lat="49.19619408" lon="19.52060265">
<ele>809.64</ele>
<time>2014-11-16T11:31:58Z</time>
</trkpt>
<trkpt lat="49.19609228" lon="19.52085101">
<ele>809.57</ele>
<time>2014-11-16T11:32:05Z</time>
</trkpt>
<trkpt lat="49.19595252" lon="19.52107886">
<ele>809.89</ele>
<time>2014-11-16T11:32:13Z</time>
</trkpt>
<trkpt lat="49.19579294" lon="19.52126559">
<ele>810.31</ele>
<time>2014-11-16T11:32:22Z</time>
</trkpt>
<trkpt lat="49.19563013" lon="19.52139017">
<ele>808.18</ele>
<time>2014-11-16T11:32:29Z</time>
</trkpt>
<trkpt lat="49.19547529" lon="19.52155103">
<ele>807.79</ele>
<time>2014-11-16T11:32:37Z</time>
</trkpt>
<trkpt lat="49.19534058" lon="19.52174697">
<ele>808.61</ele>
<time>2014-11-16T11:32:46Z</time>
</trkpt>
<trkpt lat="49.19530274" lon="19.52201814">
<ele>808.39</ele>
<time>2014-11-16T11:32:54Z</time>
</trkpt>
<trkpt lat="49.19532077" lon="19.52232577">
<ele>808.04</ele>
<time>2014-11-16T11:33:03Z</time>
</trkpt>
<trkpt lat="49.19536991" lon="19.5225924">
<ele>808.82</ele>
<time>2014-11-16T11:33:12Z</time>
</trkpt>
<trkpt lat="49.1954415" lon="19.52288097">
<ele>807.68</ele>
<time>2014-11-16T11:33:19Z</time>
</trkpt>
<trkpt lat="49.19549515" lon="19.52318327">
<ele>807.63</ele>
<time>2014-11-16T11:33:26Z</time>
</trkpt>
<trkpt lat="49.19554603" lon="19.52347434">
<ele>809.02</ele>
<time>2014-11-16T11:33:38Z</time>
</trkpt>
<trkpt lat="49.19558355" lon="19.52376347">
<ele>808.41</ele>
<time>2014-11-16T11:33:45Z</time>
</trkpt>
<trkpt lat="49.19563019" lon="19.52406616">
<ele>808.22</ele>
<time>2014-11-16T11:33:53Z</time>
</trkpt>
<trkpt lat="49.19565574" lon="19.52435486">
<ele>808.99</ele>
<time>2014-11-16T11:34:01Z</time>
</trkpt>
<trkpt lat="49.1956721" lon="19.52463036">
<ele>808.21</ele>
<time>2014-11-16T11:34:09Z</time>
</trkpt>
<trkpt lat="49.19569764" lon="19.52492735">
<ele>808.65</ele>
<time>2014-11-16T11:34:17Z</time>
</trkpt>
<trkpt lat="49.19573079" lon="19.52521426">
<ele>807.67</ele>
<time>2014-11-16T11:34:24Z</time>
</trkpt>
<trkpt lat="49.19575744" lon="19.52550333">
<ele>806.77</ele>
<time>2014-11-16T11:34:33Z</time>
</trkpt>
<trkpt lat="49.19574686" lon="19.52578161">
<ele>806.00</ele>
<time>2014-11-16T11:34:40Z</time>
</trkpt>
<trkpt lat="49.19577457" lon="19.52606135">
<ele>805.96</ele>
<time>2014-11-16T11:34:48Z</time>
</trkpt>
<trkpt lat="49.1957963" lon="19.52634705">
<ele>806.80</ele>
<time>2014-11-16T11:34:56Z</time>
</trkpt>
<trkpt lat="49.19583707" lon="19.52663581">
<ele>806.75</ele>
<time>2014-11-16T11:35:03Z</time>
</trkpt>
<trkpt lat="49.19587534" lon="19.52693897">
<ele>806.98</ele>
<time>2014-11-16T11:35:09Z</time>
</trkpt>
<trkpt lat="49.19589264" lon="19.52723633">
<ele>805.90</ele>
<time>2014-11-16T11:35:16Z</time>
</trkpt>
<trkpt lat="49.19584324" lon="19.52751249">
<ele>807.39</ele>
<time>2014-11-16T11:35:24Z</time>
</trkpt>
<trkpt lat="49.19578525" lon="19.52779619">
<ele>807.77</ele>
<time>2014-11-16T11:35:33Z</time>
</trkpt>
<trkpt lat="49.19577758" lon="19.52809956">
<ele>806.75</ele>
<time>2014-11-16T11:35:41Z</time>
</trkpt>
<trkpt lat="49.19578182" lon="19.52841646">
<ele>810.36</ele>
<time>2014-11-16T11:35:50Z</time>
</trkpt>
<trkpt lat="49.19569748" lon="19.52866874">
<ele>810.33</ele>
<time>2014-11-16T11:35:57Z</time>
</trkpt>
<trkpt lat="49.19565812" lon="19.52894038">
<ele>808.95</ele>
<time>2014-11-16T11:36:05Z</time>
</trkpt>
<trkpt lat="49.19559088" lon="19.52920339">
<ele>806.26</ele>
<time>2014-11-16T11:36:13Z</time>
</trkpt>
<trkpt lat="49.19562019" lon="19.52951303">
<ele>804.24</ele>
<time>2014-11-16T11:36:21Z</time>
</trkpt>
<trkpt lat="49.19561874" lon="19.52984124">
<ele>804.08</ele>
<time>2014-11-16T11:36:29Z</time>
</trkpt>
<trkpt lat="49.19560925" lon="19.53014788">
<ele>805.20</ele>
<time>2014-11-16T11:36:37Z</time>
</trkpt>
<trkpt lat="49.19559538" lon="19.53044087">
<ele>802.29</ele>
<time>2014-11-16T11:36:46Z</time>
</trkpt>
<trkpt lat="49.1956617" lon="19.53069966">
<ele>799.99</ele>
<time>2014-11-16T11:36:55Z</time>
</trkpt>
<trkpt lat="49.19571628" lon="19.53098189">
<ele>797.76</ele>
<time>2014-11-16T11:37:03Z</time>
</trkpt>
<trkpt lat="49.19579216" lon="19.53128169">
<ele>795.71</ele>
<time>2014-11-16T11:37:10Z</time>
</trkpt>
<trkpt lat="49.1958683" lon="19.53156475">
<ele>793.53</ele>
<time>2014-11-16T11:37:17Z</time>
</trkpt>
<trkpt lat="49.19595196" lon="19.53181764">
<ele>791.52</ele>
<time>2014-11-16T11:37:24Z</time>
</trkpt>
<trkpt lat="49.19603497" lon="19.53206534">
<ele>788.28</ele>
<time>2014-11-16T11:37:31Z</time>
</trkpt>
<trkpt lat="49.1960868" lon="19.53233642">
<ele>785.97</ele>
<time>2014-11-16T11:37:39Z</time>
</trkpt>
<trkpt lat="49.19617771" lon="19.53263687">
<ele>786.59</ele>
<time>2014-11-16T11:37:47Z</time>
</trkpt>
<trkpt lat="49.19620924" lon="19.53290981">
<ele>785.01</ele>
<time>2014-11-16T11:37:54Z</time>
</trkpt>
<trkpt lat="49.19619925" lon="19.53320364">
<ele>786.83</ele>
<time>2014-11-16T11:38:02Z</time>
</trkpt>
<trkpt lat="49.19619647" lon="19.5334859">
<ele>790.38</ele>
<time>2014-11-16T11:38:11Z</time>
</trkpt>
<trkpt lat="49.19617785" lon="19.53376207">
<ele>790.12</ele>
<time>2014-11-16T11:38:22Z</time>
</trkpt>
<trkpt lat="49.19618609" lon="19.53407496">
<ele>790.73</ele>
<time>2014-11-16T11:38:46Z</time>
</trkpt>
<trkpt lat="49.19622621" lon="19.53435508">
<ele>787.77</ele>
<time>2014-11-16T11:38:59Z</time>
</trkpt>
<trkpt lat="49.19624616" lon="19.53462958">
<ele>780.72</ele>
<time>2014-11-16T11:39:20Z</time>
</trkpt>
<trkpt lat="49.19639475" lon="19.53483043">
<ele>778.44</ele>
<time>2014-11-16T11:39:42Z</time>
</trkpt>
<trkpt lat="49.19649247" lon="19.53506264">
<ele>773.59</ele>
<time>2014-11-16T11:39:53Z</time>
</trkpt>
<trkpt lat="49.19649909" lon="19.53536795">
<ele>771.10</ele>
<time>2014-11-16T11:40:08Z</time>
</trkpt>
<trkpt lat="49.19657464" lon="19.53569086">
<ele>779.30</ele>
<time>2014-11-16T11:40:41Z</time>
</trkpt>
<trkpt lat="49.19663803" lon="19.53597097">
<ele>777.60</ele>
<time>2014-11-16T11:40:48Z</time>
</trkpt>
<trkpt lat="49.19652034" lon="19.53620817">
<ele>777.49</ele>
<time>2014-11-16T11:41:03Z</time>
</trkpt>
<trkpt lat="49.19668252" lon="19.53641214">
<ele>777.86</ele>
<time>2014-11-16T11:41:15Z</time>
</trkpt>
<trkpt lat="49.19676904" lon="19.53665885">
<ele>773.07</ele>
<time>2014-11-16T11:41:20Z</time>
</trkpt>
<trkpt lat="49.19686936" lon="19.53692924">
<ele>770.34</ele>
<time>2014-11-16T11:41:26Z</time>
</trkpt>
<trkpt lat="49.19685657" lon="19.53720606">
<ele>772.56</ele>
<time>2014-11-16T11:41:41Z</time>
</trkpt>
<trkpt lat="49.19683504" lon="19.53750345">
<ele>765.50</ele>
<time>2014-11-16T11:41:58Z</time>
</trkpt>
<trkpt lat="49.19695769" lon="19.53773324">
<ele>762.93</ele>
<time>2014-11-16T11:42:06Z</time>
</trkpt>
<trkpt lat="49.19703668" lon="19.53800557">
<ele>758.03</ele>
<time>2014-11-16T11:42:13Z</time>
</trkpt>
<trkpt lat="49.19711408" lon="19.53825891">
<ele>757.57</ele>
<time>2014-11-16T11:42:26Z</time>
</trkpt>
<trkpt lat="49.19724087" lon="19.53845772">
<ele>755.69</ele>
<time>2014-11-16T11:42:32Z</time>
</trkpt>
<trkpt lat="49.19733415" lon="19.53870929">
<ele>752.90</ele>
<time>2014-11-16T11:42:40Z</time>
</trkpt>
<trkpt lat="49.19741413" lon="19.53896601">
<ele>749.89</ele>
<time>2014-11-16T11:42:46Z</time>
</trkpt>
<trkpt lat="49.19736258" lon="19.53925801">
<ele>749.72</ele>
<time>2014-11-16T11:42:56Z</time>
</trkpt>
<trkpt lat="49.19732743" lon="19.53953132">
<ele>743.47</ele>
<time>2014-11-16T11:43:07Z</time>
</trkpt>
<trkpt lat="49.19731903" lon="19.53983794">
<ele>741.04</ele>
<time>2014-11-16T11:43:16Z</time>
</trkpt>
<trkpt lat="49.19732032" lon="19.54011641">
<ele>741.07</ele>
<time>2014-11-16T11:43:23Z</time>
</trkpt>
<trkpt lat="49.1971698" lon="19.54032699">
<ele>735.72</ele>
<time>2014-11-16T11:43:30Z</time>
</trkpt>
<trkpt lat="49.19699726" lon="19.54043956">
<ele>730.89</ele>
<time>2014-11-16T11:43:35Z</time>
</trkpt>
<trkpt lat="49.19683872" lon="19.54058422">
<ele>730.37</ele>
<time>2014-11-16T11:43:43Z</time>
</trkpt>
<trkpt lat="49.19666485" lon="19.54075105">
<ele>731.53</ele>
<time>2014-11-16T11:43:52Z</time>
</trkpt>
<trkpt lat="49.1964434" lon="19.54089203">
<ele>728.10</ele>
<time>2014-11-16T11:44:02Z</time>
</trkpt>
<trkpt lat="49.19662585" lon="19.54095108">
<ele>725.01</ele>
<time>2014-11-16T11:44:27Z</time>
</trkpt>
<trkpt lat="49.19680672" lon="19.54088793">
<ele>720.20</ele>
<time>2014-11-16T11:44:37Z</time>
</trkpt>
<trkpt lat="49.19695177" lon="19.54105399">
<ele>727.90</ele>
<time>2014-11-16T11:44:53Z</time>
</trkpt>
<trkpt lat="49.19709509" lon="19.54122101">
<ele>733.79</ele>
<time>2014-11-16T11:45:06Z</time>
</trkpt>
<trkpt lat="49.19725937" lon="19.54137263">
<ele>740.81</ele>
<time>2014-11-16T11:45:21Z</time>
</trkpt>
<trkpt lat="49.19741121" lon="19.54155929">
<ele>747.30</ele>
<time>2014-11-16T11:45:32Z</time>
</trkpt>
<trkpt lat="49.19758009" lon="19.54175151">
<ele>751.18</ele>
<time>2014-11-16T11:45:37Z</time>
</trkpt>
<trkpt lat="49.19775737" lon="19.54186861">
<ele>754.66</ele>
<time>2014-11-16T11:45:43Z</time>
</trkpt>
<trkpt lat="49.19789809" lon="19.54207169">
<ele>752.22</ele>
<time>2014-11-16T11:45:52Z</time>
</trkpt>
<trkpt lat="49.19806769" lon="19.54217301">
<ele>748.15</ele>
<time>2014-11-16T11:46:01Z</time>
</trkpt>
<trkpt lat="49.19826312" lon="19.54230931">
<ele>745.97</ele>
<time>2014-11-16T11:46:10Z</time>
</trkpt>
<trkpt lat="49.19844872" lon="19.54236612">
<ele>743.18</ele>
<time>2014-11-16T11:46:19Z</time>
</trkpt>
<trkpt lat="49.19863049" lon="19.54232706">
<ele>739.96</ele>
<time>2014-11-16T11:46:29Z</time>
</trkpt>
<trkpt lat="49.19881902" lon="19.54242833">
<ele>738.73</ele>
<time>2014-11-16T11:46:37Z</time>
</trkpt>
<trkpt lat="49.19899963" lon="19.54249418">
<ele>736.65</ele>
<time>2014-11-16T11:46:43Z</time>
</trkpt>
<trkpt lat="49.19915887" lon="19.54263905">
<ele>737.41</ele>
<time>2014-11-16T11:46:50Z</time>
</trkpt>
<trkpt lat="49.19924365" lon="19.54291694">
<ele>742.34</ele>
<time>2014-11-16T11:46:57Z</time>
</trkpt>
<trkpt lat="49.19931902" lon="19.54319951">
<ele>746.94</ele>
<time>2014-11-16T11:47:04Z</time>
</trkpt>
<trkpt lat="49.1993426" lon="19.5434978">
<ele>749.52</ele>
<time>2014-11-16T11:47:11Z</time>
</trkpt>
<trkpt lat="49.19922223" lon="19.54373259">
<ele>749.27</ele>
<time>2014-11-16T11:47:18Z</time>
</trkpt>
<trkpt lat="49.19923145" lon="19.54400988">
<ele>749.55</ele>
<time>2014-11-16T11:47:42Z</time>
</trkpt>
<trkpt lat="49.19941428" lon="19.54404759">
<ele>753.20</ele>
<time>2014-11-16T11:47:48Z</time>
</trkpt>
<trkpt lat="49.19954161" lon="19.54425416">
<ele>752.43</ele>
<time>2014-11-16T11:47:57Z</time>
</trkpt>
<trkpt lat="49.19971627" lon="19.54441378">
<ele>749.42</ele>
<time>2014-11-16T11:48:05Z</time>
</trkpt>
<trkpt lat="49.19989753" lon="19.54450318">
<ele>745.31</ele>
<time>2014-11-16T11:48:12Z</time>
</trkpt>
<trkpt lat="49.20008527" lon="19.54460988">
<ele>742.53</ele>
<time>2014-11-16T11:48:19Z</time>
</trkpt>
<trkpt lat="49.20023088" lon="19.54482292">
<ele>744.74</ele>
<time>2014-11-16T11:48:29Z</time>
</trkpt>
<trkpt lat="49.20041507" lon="19.5449157">
<ele>743.99</ele>
<time>2014-11-16T11:48:38Z</time>
</trkpt>
<trkpt lat="49.20059099" lon="19.54504927">
<ele>746.13</ele>
<time>2014-11-16T11:48:44Z</time>
</trkpt>
<trkpt lat="49.20071401" lon="19.54528022">
<ele>748.35</ele>
<time>2014-11-16T11:48:49Z</time>
</trkpt>
<trkpt lat="49.20080601" lon="19.54551786">
<ele>749.87</ele>
<time>2014-11-16T11:48:57Z</time>
</trkpt>
<trkpt lat="49.20088554" lon="19.54577474">
<ele>748.34</ele>
<time>2014-11-16T11:49:04Z</time>
</trkpt>
<trkpt lat="49.2009732" lon="19.54603518">
<ele>744.32</ele>
<time>2014-11-16T11:49:11Z</time>
</trkpt>
<trkpt lat="49.20107816" lon="19.5462853">
<ele>738.39</ele>
<time>2014-11-16T11:49:16Z</time>
</trkpt>
<trkpt lat="49.20093609" lon="19.54609442">
<ele>738.66</ele>
<time>2014-11-16T11:49:34Z</time>
</trkpt>
<trkpt lat="49.20077147" lon="19.54597422">
<ele>738.91</ele>
<time>2014-11-16T11:49:43Z</time>
</trkpt>
<trkpt lat="49.20064379" lon="19.54577695">
<ele>740.31</ele>
<time>2014-11-16T11:49:54Z</time>
</trkpt>
<trkpt lat="49.20048596" lon="19.54562372">
<ele>741.22</ele>
<time>2014-11-16T11:50:02Z</time>
</trkpt>
<trkpt lat="49.20029652" lon="19.5455755">
<ele>743.18</ele>
<time>2014-11-16T11:50:11Z</time>
</trkpt>
<trkpt lat="49.20014319" lon="19.54541443">
<ele>742.44</ele>
<time>2014-11-16T11:50:22Z</time>
</trkpt>
<trkpt lat="49.19994231" lon="19.54539129">
<ele>745.22</ele>
<time>2014-11-16T11:50:35Z</time>
</trkpt>
<trkpt lat="49.19976167" lon="19.54536852">
<ele>744.43</ele>
<time>2014-11-16T11:50:48Z</time>
</trkpt>
<trkpt lat="49.19956441" lon="19.54540653">
<ele>746.05</ele>
<time>2014-11-16T11:50:55Z</time>
</trkpt>
<trkpt lat="49.19936449" lon="19.54536813">
<ele>747.74</ele>
<time>2014-11-16T11:51:04Z</time>
</trkpt>
<trkpt lat="49.19918258" lon="19.54528846">
<ele>751.83</ele>
<time>2014-11-16T11:51:16Z</time>
</trkpt>
<trkpt lat="49.19905133" lon="19.54507861">
<ele>760.27</ele>
<time>2014-11-16T11:51:27Z</time>
</trkpt>
<trkpt lat="49.19894599" lon="19.54484715">
<ele>767.30</ele>
<time>2014-11-16T11:51:37Z</time>
</trkpt>
<trkpt lat="49.19894065" lon="19.54455954">
<ele>770.41</ele>
<time>2014-11-16T11:51:48Z</time>
</trkpt>
<trkpt lat="49.19895083" lon="19.54425455">
<ele>774.78</ele>
<time>2014-11-16T11:51:59Z</time>
</trkpt>
<trkpt lat="49.19890312" lon="19.54397891">
<ele>780.24</ele>
<time>2014-11-16T11:52:10Z</time>
</trkpt>
<trkpt lat="49.19878016" lon="19.54377372">
<ele>783.72</ele>
<time>2014-11-16T11:52:21Z</time>
</trkpt>
<trkpt lat="49.19877468" lon="19.54346716">
<ele>783.15</ele>
<time>2014-11-16T11:52:30Z</time>
</trkpt>
<trkpt lat="49.19864835" lon="19.54325936">
<ele>777.75</ele>
<time>2014-11-16T11:52:39Z</time>
</trkpt>
<trkpt lat="49.19847044" lon="19.54317871">
<ele>775.01</ele>
<time>2014-11-16T11:52:55Z</time>
</trkpt>
<trkpt lat="49.1982835" lon="19.54315269">
<ele>774.69</ele>
<time>2014-11-16T11:53:07Z</time>
</trkpt>
<trkpt lat="49.19808658" lon="19.5431237">
<ele>775.86</ele>
<time>2014-11-16T11:53:17Z</time>
</trkpt>
<trkpt lat="49.19789301" lon="19.54310898">
<ele>778.64</ele>
<time>2014-11-16T11:53:26Z</time>
</trkpt>
<trkpt lat="49.19768848" lon="19.5431039">
<ele>781.06</ele>
<time>2014-11-16T11:53:45Z</time>
</trkpt>
<trkpt lat="49.19752397" lon="19.54297928">
<ele>784.15</ele>
<time>2014-11-16T11:53:55Z</time>
</trkpt>
<trkpt lat="49.1973589" lon="19.54286561">
<ele>787.57</ele>
<time>2014-11-16T11:54:06Z</time>
</trkpt>
<trkpt lat="49.19718404" lon="19.54279178">
<ele>786.22</ele>
<time>2014-11-16T11:54:15Z</time>
</trkpt>
<trkpt lat="49.19699806" lon="19.54283077">
<ele>790.21</ele>
<time>2014-11-16T11:54:28Z</time>
</trkpt>
<trkpt lat="49.19685488" lon="19.54301104">
<ele>795.63</ele>
<time>2014-11-16T11:54:41Z</time>
</trkpt>
<trkpt lat="49.19679511" lon="19.54328185">
<ele>797.96</ele>
<time>2014-11-16T11:54:50Z</time>
</trkpt>
<trkpt lat="49.19665683" lon="19.54346492">
<ele>805.16</ele>
<time>2014-11-16T11:55:02Z</time>
</trkpt>
<trkpt lat="49.19648674" lon="19.54358598">
<ele>810.14</ele>
<time>2014-11-16T11:55:13Z</time>
</trkpt>
<trkpt lat="49.19628625" lon="19.54363292">
<ele>809.70</ele>
<time>2014-11-16T11:55:21Z</time>
</trkpt>
<trkpt lat="49.19609048" lon="19.54367721">
<ele>809.53</ele>
<time>2014-11-16T11:55:32Z</time>
</trkpt>
<trkpt lat="49.19588494" lon="19.54364001">
<ele>808.86</ele>
<time>2014-11-16T11:55:40Z</time>
</trkpt>
<trkpt lat="49.19568416" lon="19.54364739">
<ele>806.48</ele>
<time>2014-11-16T11:55:46Z</time>
</trkpt>
<trkpt lat="49.19546232" lon="19.54359814">
<ele>807.54</ele>
<time>2014-11-16T11:55:55Z</time>
</trkpt>
<trkpt lat="49.19527778" lon="19.54367259">
<ele>806.90</ele>
<time>2014-11-16T11:56:03Z</time>
</trkpt>
<trkpt lat="49.19529078" lon="19.54397189">
<ele>800.93</ele>
<time>2014-11-16T11:56:11Z</time>
</trkpt>
<trkpt lat="49.19535367" lon="19.54426883">
<ele>803.26</ele>
<time>2014-11-16T11:56:20Z</time>
</trkpt>
<trkpt lat="49.19528998" lon="19.54454784">
<ele>806.38</ele>
<time>2014-11-16T11:56:33Z</time>
</trkpt>
<trkpt lat="49.1951161" lon="19.54466282">
<ele>810.46</ele>
<time>2014-11-16T11:56:48Z</time>
</trkpt>
<trkpt lat="49.19490995" lon="19.54462743">
<ele>813.26</ele>
<time>2014-11-16T11:56:57Z</time>
</trkpt>
<trkpt lat="49.19474599" lon="19.5447633">
<ele>807.64</ele>
<time>2014-11-16T11:57:04Z</time>
</trkpt>
<trkpt lat="49.19457072" lon="19.54486479">
<ele>806.58</ele>
<time>2014-11-16T11:57:12Z</time>
</trkpt>
<trkpt lat="49.19441543" lon="19.54502864">
<ele>805.61</ele>
<time>2014-11-16T11:57:19Z</time>
</trkpt>
<trkpt lat="49.19425083" lon="19.5451753">
<ele>805.92</ele>
<time>2014-11-16T11:57:28Z</time>
</trkpt>
<trkpt lat="49.19411667" lon="19.54537564">
<ele>804.40</ele>
<time>2014-11-16T11:57:37Z</time>
</trkpt>
<trkpt lat="49.19395203" lon="19.54551109">
<ele>804.81</ele>
<time>2014-11-16T11:57:46Z</time>
</trkpt>
<trkpt lat="49.1937915" lon="19.54565753">
<ele>808.28</ele>
<time>2014-11-16T11:57:56Z</time>
</trkpt>
<trkpt lat="49.19363082" lon="19.54580434">
<ele>808.11</ele>
<time>2014-11-16T11:58:03Z</time>
</trkpt>
<trkpt lat="49.19346631" lon="19.54592127">
<ele>807.73</ele>
<time>2014-11-16T11:58:09Z</time>
</trkpt>
<trkpt lat="49.19330477" lon="19.54609949">
<ele>806.03</ele>
<time>2014-11-16T11:58:19Z</time>
</trkpt>
<trkpt lat="49.19313199" lon="19.54618363">
<ele>809.12</ele>
<time>2014-11-16T11:58:40Z</time>
</trkpt>
<trkpt lat="49.19292584" lon="19.54606966">
<ele>810.91</ele>
<time>2014-11-16T11:58:48Z</time>
</trkpt>
<trkpt lat="49.19277139" lon="19.54588169">
<ele>807.68</ele>
<time>2014-11-16T11:58:57Z</time>
</trkpt>
<trkpt lat="49.192584" lon="19.54583388">
<ele>803.23</ele>
<time>2014-11-16T11:59:05Z</time>
</trkpt>
<trkpt lat="49.19240079" lon="19.54577817">
<ele>803.33</ele>
<time>2014-11-16T11:59:15Z</time>
</trkpt>
<trkpt lat="49.19221913" lon="19.54573696">
<ele>803.98</ele>
<time>2014-11-16T11:59:34Z</time>
</trkpt>
<trkpt lat="49.19208382" lon="19.54592641">
<ele>808.09</ele>
<time>2014-11-16T11:59:46Z</time>
</trkpt>
<trkpt lat="49.19189967" lon="19.54596785">
<ele>810.47</ele>
<time>2014-11-16T11:59:59Z</time>
</trkpt>
<trkpt lat="49.1917157" lon="19.5460161">
<ele>811.82</ele>
<time>2014-11-16T12:00:12Z</time>
</trkpt>
<trkpt lat="49.19153879" lon="19.54610241">
<ele>814.09</ele>
<time>2014-11-16T12:00:20Z</time>
</trkpt>
<trkpt lat="49.19136671" lon="19.54597074">
<ele>818.59</ele>
<time>2014-11-16T12:00:31Z</time>
</trkpt>
<trkpt lat="49.1911703" lon="19.5458724">
<ele>818.55</ele>
<time>2014-11-16T12:00:46Z</time>
</trkpt>
<trkpt lat="49.19097489" lon="19.54584636">
<ele>810.51</ele>
<time>2014-11-16T12:00:56Z</time>
</trkpt>
<trkpt lat="49.19079418" lon="19.54577004">
<ele>807.58</ele>
<time>2014-11-16T12:01:01Z</time>
</trkpt>
<trkpt lat="49.19059797" lon="19.54574918">
<ele>808.31</ele>
<time>2014-11-16T12:01:07Z</time>
</trkpt>
<trkpt lat="49.19045444" lon="19.54594842">
<ele>808.12</ele>
<time>2014-11-16T12:01:15Z</time>
</trkpt>
<trkpt lat="49.19034467" lon="19.54616633">
<ele>806.04</ele>
<time>2014-11-16T12:01:26Z</time>
</trkpt>
<trkpt lat="49.19032432" lon="19.54646161">
<ele>802.42</ele>
<time>2014-11-16T12:01:36Z</time>
</trkpt>
<trkpt lat="49.19034718" lon="19.54675815">
<ele>799.02</ele>
<time>2014-11-16T12:01:44Z</time>
</trkpt>
<trkpt lat="49.19023919" lon="19.54698565">
<ele>802.25</ele>
<time>2014-11-16T12:02:01Z</time>
</trkpt>
<trkpt lat="49.1900517" lon="19.54691348">
<ele>806.29</ele>
<time>2014-11-16T12:02:10Z</time>
</trkpt>
<trkpt lat="49.18987966" lon="19.54679151">
<ele>808.93</ele>
<time>2014-11-16T12:02:17Z</time>
</trkpt>
<trkpt lat="49.18975131" lon="19.54654344">
<ele>806.22</ele>
<time>2014-11-16T12:02:28Z</time>
</trkpt>
<trkpt lat="49.18954799" lon="19.54648485">
<ele>801.84</ele>
<time>2014-11-16T12:02:33Z</time>
</trkpt>
<trkpt lat="49.18936284" lon="19.546519">
<ele>799.91</ele>
<time>2014-11-16T12:02:45Z</time>
</trkpt>
<trkpt lat="49.18917437" lon="19.54648641">
<ele>798.19</ele>
<time>2014-11-16T12:03:00Z</time>
</trkpt>
<trkpt lat="49.18900124" lon="19.5463748">
<ele>796.56</ele>
<time>2014-11-16T12:03:11Z</time>
</trkpt>
<trkpt lat="49.18881688" lon="19.54628473">
<ele>796.60</ele>
<time>2014-11-16T12:03:18Z</time>
</trkpt>
<trkpt lat="49.18866102" lon="19.54612375">
<ele>793.84</ele>
<time>2014-11-16T12:03:25Z</time>
</trkpt>
<trkpt lat="49.18847105" lon="19.54597368">
<ele>792.98</ele>
<time>2014-11-16T12:03:32Z</time>
</trkpt>
<trkpt lat="49.18835076" lon="19.54573892">
<ele>792.12</ele>
<time>2014-11-16T12:03:40Z</time>
</trkpt>
<trkpt lat="49.18821514" lon="19.54551617">
<ele>792.36</ele>
<time>2014-11-16T12:03:46Z</time>
</trkpt>
<trkpt lat="49.18806927" lon="19.54533096">
<ele>790.14</ele>
<time>2014-11-16T12:03:57Z</time>
</trkpt>
<trkpt lat="49.1879226" lon="19.54511388">
<ele>788.24</ele>
<time>2014-11-16T12:04:05Z</time>
</trkpt>
<trkpt lat="49.18790301" lon="19.54483212">
<ele>785.99</ele>
<time>2014-11-16T12:04:12Z</time>
</trkpt>
<trkpt lat="49.18781625" lon="19.54458453">
<ele>782.59</ele>
<time>2014-11-16T12:04:19Z</time>
</trkpt>
<trkpt lat="49.18768203" lon="19.54439426">
<ele>776.54</ele>
<time>2014-11-16T12:04:25Z</time>
</trkpt>
<trkpt lat="49.18765819" lon="19.54407964">
<ele>772.86</ele>
<time>2014-11-16T12:04:35Z</time>
</trkpt>
<trkpt lat="49.18754436" lon="19.54383462">
<ele>769.62</ele>
<time>2014-11-16T12:04:43Z</time>
</trkpt>
<trkpt lat="49.18740427" lon="19.54364262">
<ele>766.12</ele>
<time>2014-11-16T12:04:51Z</time>
</trkpt>
<trkpt lat="49.18724301" lon="19.54347953">
<ele>764.48</ele>
<time>2014-11-16T12:05:00Z</time>
</trkpt>
<trkpt lat="49.18707986" lon="19.54323859">
<ele>763.31</ele>
<time>2014-11-16T12:05:05Z</time>
</trkpt>
<trkpt lat="49.18699339" lon="19.54298443">
<ele>761.78</ele>
<time>2014-11-16T12:05:12Z</time>
</trkpt>
<trkpt lat="49.18685035" lon="19.54281375">
<ele>758.94</ele>
<time>2014-11-16T12:05:20Z</time>
</trkpt>
<trkpt lat="49.18664307" lon="19.54283802">
<ele>757.09</ele>
<time>2014-11-16T12:05:30Z</time>
</trkpt>
<trkpt lat="49.1864464" lon="19.54289142">
<ele>756.03</ele>
<time>2014-11-16T12:05:36Z</time>
</trkpt>
<trkpt lat="49.18627513" lon="19.54278676">
<ele>753.53</ele>
<time>2014-11-16T12:05:47Z</time>
</trkpt>
<trkpt lat="49.1861389" lon="19.54258408">
<ele>754.09</ele>
<time>2014-11-16T12:05:55Z</time>
</trkpt>
<trkpt lat="49.186041" lon="19.54230986">
<ele>751.84</ele>
<time>2014-11-16T12:06:04Z</time>
</trkpt>
<trkpt lat="49.18591006" lon="19.54209939">
<ele>747.25</ele>
<time>2014-11-16T12:06:12Z</time>
</trkpt>
<trkpt lat="49.18571408" lon="19.54208444">
<ele>744.83</ele>
<time>2014-11-16T12:06:19Z</time>
</trkpt>
<trkpt lat="49.18552841" lon="19.54197123">
<ele>742.05</ele>
<time>2014-11-16T12:06:25Z</time>
</trkpt>
<trkpt lat="49.18535751" lon="19.54186185">
<ele>738.46</ele>
<time>2014-11-16T12:06:31Z</time>
</trkpt>
<trkpt lat="49.18519286" lon="19.54170781">
<ele>734.83</ele>
<time>2014-11-16T12:06:38Z</time>
</trkpt>
<trkpt lat="49.18501016" lon="19.54162854">
<ele>731.08</ele>
<time>2014-11-16T12:06:45Z</time>
</trkpt>
<trkpt lat="49.18484129" lon="19.54173353">
<ele>725.47</ele>
<time>2014-11-16T12:06:55Z</time>
</trkpt>
<trkpt lat="49.18465471" lon="19.54171039">
<ele>723.40</ele>
<time>2014-11-16T12:07:06Z</time>
</trkpt>
<trkpt lat="49.18443927" lon="19.5417525">
<ele>720.30</ele>
<time>2014-11-16T12:07:18Z</time>
</trkpt>
<trkpt lat="49.18423875" lon="19.54172247">
<ele>721.32</ele>
<time>2014-11-16T12:07:30Z</time>
</trkpt>
<trkpt lat="49.18405283" lon="19.5416265">
<ele>722.64</ele>
<time>2014-11-16T12:07:38Z</time>
</trkpt>
<trkpt lat="49.18387578" lon="19.5415385">
<ele>722.99</ele>
<time>2014-11-16T12:07:46Z</time>
</trkpt>
<trkpt lat="49.18371006" lon="19.54141669">
<ele>724.17</ele>
<time>2014-11-16T12:07:57Z</time>
</trkpt>
<trkpt lat="49.18355938" lon="19.5412652">
<ele>722.34</ele>
<time>2014-11-16T12:08:03Z</time>
</trkpt>
<trkpt lat="49.18338647" lon="19.54115646">
<ele>719.72</ele>
<time>2014-11-16T12:08:09Z</time>
</trkpt>
<trkpt lat="49.18320906" lon="19.54105879">
<ele>717.12</ele>
<time>2014-11-16T12:08:15Z</time>
</trkpt>
<trkpt lat="49.18303421" lon="19.54095456">
<ele>711.42</ele>
<time>2014-11-16T12:08:25Z</time>
</trkpt>
<trkpt lat="49.18281652" lon="19.5408353">
<ele>707.62</ele>
<time>2014-11-16T12:08:32Z</time>
</trkpt>
<trkpt lat="49.18263407" lon="19.5407776">
<ele>706.44</ele>
<time>2014-11-16T12:08:42Z</time>
</trkpt>
<trkpt lat="49.18246218" lon="19.54087444">
<ele>708.70</ele>
<time>2014-11-16T12:08:51Z</time>
</trkpt>
<trkpt lat="49.18225895" lon="19.54076126">
<ele>705.88</ele>
<time>2014-11-16T12:08:57Z</time>
</trkpt>
<trkpt lat="49.18211292" lon="19.54057598">
<ele>703.71</ele>
<time>2014-11-16T12:09:03Z</time>
</trkpt>
<trkpt lat="49.18193512" lon="19.54036596">
<ele>701.14</ele>
<time>2014-11-16T12:09:11Z</time>
</trkpt>
<trkpt lat="49.18175389" lon="19.54038822">
<ele>696.59</ele>
<time>2014-11-16T12:09:20Z</time>
</trkpt>
<trkpt lat="49.18157254" lon="19.54031889">
<ele>685.01</ele>
<time>2014-11-16T12:09:28Z</time>
</trkpt>
<trkpt lat="49.1813756" lon="19.54029685">
<ele>677.16</ele>
<time>2014-11-16T12:09:35Z</time>
</trkpt>
<trkpt lat="49.18120317" lon="19.54013333">
<ele>673.75</ele>
<time>2014-11-16T12:09:42Z</time>
</trkpt>
<trkpt lat="49.18103596" lon="19.54024417">
<ele>673.33</ele>
<time>2014-11-16T12:09:52Z</time>
</trkpt>
<trkpt lat="49.18088309" lon="19.54047394">
<ele>670.48</ele>
<time>2014-11-16T12:09:57Z</time>
</trkpt>
<trkpt lat="49.18069998" lon="19.54057188">
<ele>668.02</ele>
<time>2014-11-16T12:10:05Z</time>
</trkpt>
<trkpt lat="49.18050622" lon="19.54054484">
<ele>666.45</ele>
<time>2014-11-16T12:10:13Z</time>
</trkpt>
<trkpt lat="49.18031615" lon="19.54070106">
<ele>666.08</ele>
<time>2014-11-16T12:10:20Z</time>
</trkpt>
<trkpt lat="49.18013626" lon="19.54083388">
<ele>666.54</ele>
<time>2014-11-16T12:10:27Z</time>
</trkpt>
<trkpt lat="49.18000923" lon="19.54109434">
<ele>663.98</ele>
<time>2014-11-16T12:10:37Z</time>
</trkpt>
<trkpt lat="49.17992524" lon="19.54135894">
<ele>662.02</ele>
<time>2014-11-16T12:10:45Z</time>
</trkpt>
<trkpt lat="49.17978163" lon="19.54154088">
<ele>661.78</ele>
<time>2014-11-16T12:10:53Z</time>
</trkpt>
<trkpt lat="49.17960088" lon="19.54155097">
<ele>661.88</ele>
<time>2014-11-16T12:11:01Z</time>
</trkpt>
<trkpt lat="49.17940125" lon="19.54161211">
<ele>661.16</ele>
<time>2014-11-16T12:11:07Z</time>
</trkpt>
<trkpt lat="49.17921431" lon="19.54171238">
<ele>657.67</ele>
<time>2014-11-16T12:11:13Z</time>
</trkpt>
<trkpt lat="49.1790232" lon="19.54184461">
<ele>649.57</ele>
<time>2014-11-16T12:11:21Z</time>
</trkpt>
<trkpt lat="49.17883279" lon="19.54195928">
<ele>646.73</ele>
<time>2014-11-16T12:11:28Z</time>
</trkpt>
<trkpt lat="49.17866897" lon="19.54213375">
<ele>642.69</ele>
<time>2014-11-16T12:11:36Z</time>
</trkpt>
<trkpt lat="49.17849355" lon="19.54222987">
<ele>641.25</ele>
<time>2014-11-16T12:11:43Z</time>
</trkpt>
<trkpt lat="49.17837511" lon="19.54245807">
<ele>641.03</ele>
<time>2014-11-16T12:11:54Z</time>
</trkpt>
<trkpt lat="49.17819305" lon="19.54246817">
<ele>640.68</ele>
<time>2014-11-16T12:11:57Z</time>
</trkpt>
</trkseg>
</trk>
</gpx>
