<?xml version="1.0" encoding="UTF-8" standalone="no" ?>
<gpx xmlns="http://www.topografix.com/GPX/1/1" xmlns:gpxtpx="http://www.garmin.com/xmlschemas/TrackPointExtension/v1" creator="OruxMaps v.5.5.18" version="1.1" xmlns:xsi="http://www.w3.org/2001/XMLSchema-instance" xsi:schemaLocation="http://www.topografix.com/GPX/1/1 http://www.topografix.com/GPX/1/1/gpx.xsd">
<metadata>
<name><![CDATA[]]></name>
<desc><![CDATA[]]></desc>
<link href="http://www.oruxmaps.com">
<text>OruxMaps</text>
</link>
<time>2015-10-25T08:55:56Z</time><bounds maxlat="49.13722825" maxlon="20.0569527" minlat="49.1186989" minlon="20.01412073"/>
</metadata>
<trk>
<name><![CDATA[]]></name>
<desc><![CDATA[<h1>OruxMaps</h1><br /><hr align="center" width="480" style="height: 2px; width: 517px"/><h2>Name: </h2><br /><p>Start time: 10/25/2015 09:56</p><p>Finish time: 10/25/2015 11:24</p><p>Distance: 10.5 km (01:28)</p><p>Moving time: 01:23</p><p>Average speed: 7.1 km/h</p><p>Avg. Speed Mov.: 7.6 km/h</p><p>Max. Speed: 12.9 km/h</p><p>Minimum altitude: 866 m</p><p>Maximum altitude: 1471 m</p><p>Ascent speed: 913.6 m/h</p><p>Descent speed: -621.6 m/h</p><p>Elevation gain: 712 m</p><p>Elevation loss: -363 m</p><p>Ascent time: 00:46</p><p>Descent time: 00:35</p><hr align="center" width="480" style="height: 2px; width: 517px"/>]]></desc>
<type>Undefined</type>
<extensions>
<om:oruxmapsextensions xmlns:om="http://www.oruxmaps.com/oruxmapsextensions/1/0">
<om:ext type="TYPE" subtype="0">0</om:ext>
</om:oruxmapsextensions>
</extensions>
<trkseg>
<trkpt lat="49.12043174" lon="20.01706892">
<ele>866.86</ele>
<time>2015-10-25T08:56:39Z</time>
</trkpt>
<trkpt lat="49.12045016" lon="20.01676882">
<ele>1009.66</ele>
<time>2015-10-25T08:56:52Z</time>
</trkpt>
<trkpt lat="49.1205457" lon="20.01652233">
<ele>1116.41</ele>
<time>2015-10-25T08:57:03Z</time>
</trkpt>
<trkpt lat="49.12060584" lon="20.01624053">
<ele>1192.48</ele>
<time>2015-10-25T08:57:16Z</time>
</trkpt>
<trkpt lat="49.12067047" lon="20.01596848">
<ele>1200.67</ele>
<time>2015-10-25T08:57:28Z</time>
</trkpt>
<trkpt lat="49.12074376" lon="20.01569897">
<ele>1206.09</ele>
<time>2015-10-25T08:57:42Z</time>
</trkpt>
<trkpt lat="49.12082079" lon="20.01542035">
<ele>1204.93</ele>
<time>2015-10-25T08:57:55Z</time>
</trkpt>
<trkpt lat="49.12095197" lon="20.01521703">
<ele>1205.36</ele>
<time>2015-10-25T08:58:07Z</time>
</trkpt>
<trkpt lat="49.12105181" lon="20.01497812">
<ele>1206.33</ele>
<time>2015-10-25T08:58:20Z</time>
</trkpt>
<trkpt lat="49.12123709" lon="20.01500166">
<ele>1209.33</ele>
<time>2015-10-25T08:58:38Z</time>
</trkpt>
<trkpt lat="49.1214017" lon="20.01511397">
<ele>1210.17</ele>
<time>2015-10-25T08:58:54Z</time>
</trkpt>
<trkpt lat="49.12158007" lon="20.01517841">
<ele>1214.41</ele>
<time>2015-10-25T08:59:11Z</time>
</trkpt>
<trkpt lat="49.12170301" lon="20.01537866">
<ele>1220.32</ele>
<time>2015-10-25T08:59:29Z</time>
</trkpt>
<trkpt lat="49.12187917" lon="20.01547641">
<ele>1222.73</ele>
<time>2015-10-25T08:59:51Z</time>
</trkpt>
<trkpt lat="49.12206691" lon="20.01548393">
<ele>1225.32</ele>
<time>2015-10-25T09:00:13Z</time>
</trkpt>
<trkpt lat="49.12224714" lon="20.01550578">
<ele>1224.96</ele>
<time>2015-10-25T09:00:33Z</time>
</trkpt>
<trkpt lat="49.12237211" lon="20.01530773">
<ele>1229.02</ele>
<time>2015-10-25T09:00:51Z</time>
</trkpt>
<trkpt lat="49.12249386" lon="20.01509785">
<ele>1236.75</ele>
<time>2015-10-25T09:01:10Z</time>
</trkpt>
<trkpt lat="49.12248996" lon="20.01482148">
<ele>1239.79</ele>
<time>2015-10-25T09:01:29Z</time>
</trkpt>
<trkpt lat="49.12259528" lon="20.01454999">
<ele>1248.09</ele>
<time>2015-10-25T09:01:44Z</time>
</trkpt>
<trkpt lat="49.12270069" lon="20.0143039">
<ele>1245.26</ele>
<time>2015-10-25T09:01:56Z</time>
</trkpt>
<trkpt lat="49.12286637" lon="20.01416398">
<ele>1251.02</ele>
<time>2015-10-25T09:02:10Z</time>
</trkpt>
<trkpt lat="49.1230579" lon="20.01412073">
<ele>1251.29</ele>
<time>2015-10-25T09:02:25Z</time>
</trkpt>
<trkpt lat="49.12323992" lon="20.01415102">
<ele>1254.98</ele>
<time>2015-10-25T09:02:37Z</time>
</trkpt>
<trkpt lat="49.12342117" lon="20.01416466">
<ele>1229.57</ele>
<time>2015-10-25T09:02:47Z</time>
</trkpt>
<trkpt lat="49.12356685" lon="20.01433941">
<ele>1241.12</ele>
<time>2015-10-25T09:02:57Z</time>
</trkpt>
<trkpt lat="49.12370348" lon="20.0145273">
<ele>1250.03</ele>
<time>2015-10-25T09:03:07Z</time>
</trkpt>
<trkpt lat="49.123851" lon="20.01469717">
<ele>1254.31</ele>
<time>2015-10-25T09:03:21Z</time>
</trkpt>
<trkpt lat="49.12396645" lon="20.0149209">
<ele>1255.58</ele>
<time>2015-10-25T09:03:36Z</time>
</trkpt>
<trkpt lat="49.124065" lon="20.01517766">
<ele>1260.65</ele>
<time>2015-10-25T09:03:49Z</time>
</trkpt>
<trkpt lat="49.1242132" lon="20.0153652">
<ele>1261.61</ele>
<time>2015-10-25T09:04:05Z</time>
</trkpt>
<trkpt lat="49.12436248" lon="20.01554221">
<ele>1258.33</ele>
<time>2015-10-25T09:04:22Z</time>
</trkpt>
<trkpt lat="49.12451673" lon="20.01572664">
<ele>1264.98</ele>
<time>2015-10-25T09:04:38Z</time>
</trkpt>
<trkpt lat="49.12466262" lon="20.01589426">
<ele>1266.06</ele>
<time>2015-10-25T09:04:54Z</time>
</trkpt>
<trkpt lat="49.12482769" lon="20.0160378">
<ele>1268.33</ele>
<time>2015-10-25T09:05:09Z</time>
</trkpt>
<trkpt lat="49.12502633" lon="20.01607416">
<ele>1267.58</ele>
<time>2015-10-25T09:05:27Z</time>
</trkpt>
<trkpt lat="49.1252136" lon="20.01602418">
<ele>1274.00</ele>
<time>2015-10-25T09:05:41Z</time>
</trkpt>
<trkpt lat="49.12539211" lon="20.01594687">
<ele>1274.66</ele>
<time>2015-10-25T09:05:54Z</time>
</trkpt>
<trkpt lat="49.12556981" lon="20.01584604">
<ele>1273.10</ele>
<time>2015-10-25T09:06:12Z</time>
</trkpt>
<trkpt lat="49.12575326" lon="20.01581782">
<ele>1275.59</ele>
<time>2015-10-25T09:06:30Z</time>
</trkpt>
<trkpt lat="49.12587859" lon="20.01602454">
<ele>1281.48</ele>
<time>2015-10-25T09:06:45Z</time>
</trkpt>
<trkpt lat="49.12602689" lon="20.01618354">
<ele>1282.30</ele>
<time>2015-10-25T09:07:03Z</time>
</trkpt>
<trkpt lat="49.12616751" lon="20.01638663">
<ele>1287.66</ele>
<time>2015-10-25T09:07:22Z</time>
</trkpt>
<trkpt lat="49.12632663" lon="20.01653111">
<ele>1292.77</ele>
<time>2015-10-25T09:07:38Z</time>
</trkpt>
<trkpt lat="49.1265055" lon="20.01657762">
<ele>1298.13</ele>
<time>2015-10-25T09:07:53Z</time>
</trkpt>
<trkpt lat="49.12667163" lon="20.01672764">
<ele>1301.87</ele>
<time>2015-10-25T09:08:09Z</time>
</trkpt>
<trkpt lat="49.12683994" lon="20.01682851">
<ele>1294.19</ele>
<time>2015-10-25T09:08:23Z</time>
</trkpt>
<trkpt lat="49.12701339" lon="20.01698315">
<ele>1297.00</ele>
<time>2015-10-25T09:08:38Z</time>
</trkpt>
<trkpt lat="49.12718344" lon="20.01713308">
<ele>1295.80</ele>
<time>2015-10-25T09:08:51Z</time>
</trkpt>
<trkpt lat="49.1273513" lon="20.01724224">
<ele>1304.44</ele>
<time>2015-10-25T09:10:32Z</time>
</trkpt>
<trkpt lat="49.12749172" lon="20.01743609">
<ele>1307.12</ele>
<time>2015-10-25T09:10:43Z</time>
</trkpt>
<trkpt lat="49.12766862" lon="20.01754583">
<ele>1309.47</ele>
<time>2015-10-25T09:10:55Z</time>
</trkpt>
<trkpt lat="49.12785705" lon="20.01752862">
<ele>1311.82</ele>
<time>2015-10-25T09:11:04Z</time>
</trkpt>
<trkpt lat="49.12805175" lon="20.01747901">
<ele>1314.26</ele>
<time>2015-10-25T09:11:14Z</time>
</trkpt>
<trkpt lat="49.12822805" lon="20.0174195">
<ele>1313.83</ele>
<time>2015-10-25T09:11:26Z</time>
</trkpt>
<trkpt lat="49.12840824" lon="20.01748571">
<ele>1315.26</ele>
<time>2015-10-25T09:11:37Z</time>
</trkpt>
<trkpt lat="49.12859254" lon="20.01754667">
<ele>1317.30</ele>
<time>2015-10-25T09:11:47Z</time>
</trkpt>
<trkpt lat="49.12878483" lon="20.01753371">
<ele>1318.36</ele>
<time>2015-10-25T09:11:58Z</time>
</trkpt>
<trkpt lat="49.12896479" lon="20.01747178">
<ele>1322.43</ele>
<time>2015-10-25T09:12:12Z</time>
</trkpt>
<trkpt lat="49.1291412" lon="20.01736384">
<ele>1328.16</ele>
<time>2015-10-25T09:12:28Z</time>
</trkpt>
<trkpt lat="49.12929846" lon="20.01723067">
<ele>1333.54</ele>
<time>2015-10-25T09:12:43Z</time>
</trkpt>
<trkpt lat="49.12942659" lon="20.01742372">
<ele>1339.28</ele>
<time>2015-10-25T09:12:55Z</time>
</trkpt>
<trkpt lat="49.12957127" lon="20.01759291">
<ele>1339.47</ele>
<time>2015-10-25T09:13:05Z</time>
</trkpt>
<trkpt lat="49.12973512" lon="20.01774623">
<ele>1340.27</ele>
<time>2015-10-25T09:13:17Z</time>
</trkpt>
<trkpt lat="49.12989661" lon="20.01788504">
<ele>1344.67</ele>
<time>2015-10-25T09:13:32Z</time>
</trkpt>
<trkpt lat="49.13009016" lon="20.01794461">
<ele>1342.54</ele>
<time>2015-10-25T09:13:48Z</time>
</trkpt>
<trkpt lat="49.13026712" lon="20.01803394">
<ele>1348.90</ele>
<time>2015-10-25T09:14:00Z</time>
</trkpt>
<trkpt lat="49.13045363" lon="20.01809987">
<ele>1349.23</ele>
<time>2015-10-25T09:14:11Z</time>
</trkpt>
<trkpt lat="49.13063058" lon="20.01817933">
<ele>1348.41</ele>
<time>2015-10-25T09:14:23Z</time>
</trkpt>
<trkpt lat="49.13078836" lon="20.01835637">
<ele>1348.12</ele>
<time>2015-10-25T09:14:43Z</time>
</trkpt>
<trkpt lat="49.13096508" lon="20.01842219">
<ele>1350.72</ele>
<time>2015-10-25T09:14:56Z</time>
</trkpt>
<trkpt lat="49.13114778" lon="20.01848303">
<ele>1357.55</ele>
<time>2015-10-25T09:15:09Z</time>
</trkpt>
<trkpt lat="49.13131095" lon="20.01860106">
<ele>1362.20</ele>
<time>2015-10-25T09:15:24Z</time>
</trkpt>
<trkpt lat="49.1314968" lon="20.0186783">
<ele>1360.02</ele>
<time>2015-10-25T09:15:36Z</time>
</trkpt>
<trkpt lat="49.13169088" lon="20.01873781">
<ele>1357.10</ele>
<time>2015-10-25T09:15:46Z</time>
</trkpt>
<trkpt lat="49.13187823" lon="20.01883011">
<ele>1358.41</ele>
<time>2015-10-25T09:15:56Z</time>
</trkpt>
<trkpt lat="49.13205066" lon="20.01894016">
<ele>1362.31</ele>
<time>2015-10-25T09:16:06Z</time>
</trkpt>
<trkpt lat="49.13221484" lon="20.01905427">
<ele>1369.21</ele>
<time>2015-10-25T09:16:20Z</time>
</trkpt>
<trkpt lat="49.13237012" lon="20.01920903">
<ele>1373.35</ele>
<time>2015-10-25T09:16:37Z</time>
</trkpt>
<trkpt lat="49.13247047" lon="20.01944674">
<ele>1373.37</ele>
<time>2015-10-25T09:16:49Z</time>
</trkpt>
<trkpt lat="49.13258813" lon="20.01966092">
<ele>1380.09</ele>
<time>2015-10-25T09:17:06Z</time>
</trkpt>
<trkpt lat="49.13269389" lon="20.01989067">
<ele>1380.56</ele>
<time>2015-10-25T09:17:20Z</time>
</trkpt>
<trkpt lat="49.13287458" lon="20.01993715">
<ele>1373.62</ele>
<time>2015-10-25T09:17:39Z</time>
</trkpt>
<trkpt lat="49.13305405" lon="20.01998868">
<ele>1364.91</ele>
<time>2015-10-25T09:17:50Z</time>
</trkpt>
<trkpt lat="49.13324629" lon="20.0200042">
<ele>1363.19</ele>
<time>2015-10-25T09:18:05Z</time>
</trkpt>
<trkpt lat="49.13342716" lon="20.02002073">
<ele>1376.23</ele>
<time>2015-10-25T09:18:22Z</time>
</trkpt>
<trkpt lat="49.13361771" lon="20.01991309">
<ele>1383.68</ele>
<time>2015-10-25T09:18:37Z</time>
</trkpt>
<trkpt lat="49.1337952" lon="20.0198451">
<ele>1391.04</ele>
<time>2015-10-25T09:18:55Z</time>
</trkpt>
<trkpt lat="49.13392959" lon="20.0196484">
<ele>1398.10</ele>
<time>2015-10-25T09:19:09Z</time>
</trkpt>
<trkpt lat="49.13409032" lon="20.01947229">
<ele>1400.89</ele>
<time>2015-10-25T09:19:22Z</time>
</trkpt>
<trkpt lat="49.13425408" lon="20.01930641">
<ele>1406.88</ele>
<time>2015-10-25T09:19:35Z</time>
</trkpt>
<trkpt lat="49.13443662" lon="20.01921023">
<ele>1408.44</ele>
<time>2015-10-25T09:19:52Z</time>
</trkpt>
<trkpt lat="49.13461988" lon="20.01927401">
<ele>1414.36</ele>
<time>2015-10-25T09:20:11Z</time>
</trkpt>
<trkpt lat="49.13467597" lon="20.01953529">
<ele>1421.93</ele>
<time>2015-10-25T09:20:32Z</time>
</trkpt>
<trkpt lat="49.13484811" lon="20.01964198">
<ele>1423.86</ele>
<time>2015-10-25T09:20:49Z</time>
</trkpt>
<trkpt lat="49.13502857" lon="20.01963456">
<ele>1410.65</ele>
<time>2015-10-25T09:21:05Z</time>
</trkpt>
<trkpt lat="49.13521239" lon="20.01956766">
<ele>1424.06</ele>
<time>2015-10-25T09:21:20Z</time>
</trkpt>
<trkpt lat="49.13534589" lon="20.01936852">
<ele>1430.09</ele>
<time>2015-10-25T09:21:38Z</time>
</trkpt>
<trkpt lat="49.13544764" lon="20.01913353">
<ele>1431.35</ele>
<time>2015-10-25T09:21:51Z</time>
</trkpt>
<trkpt lat="49.13558657" lon="20.0189471">
<ele>1436.40</ele>
<time>2015-10-25T09:22:04Z</time>
</trkpt>
<trkpt lat="49.1356985" lon="20.01873198">
<ele>1440.90</ele>
<time>2015-10-25T09:22:18Z</time>
</trkpt>
<trkpt lat="49.13587153" lon="20.01859673">
<ele>1443.10</ele>
<time>2015-10-25T09:22:34Z</time>
</trkpt>
<trkpt lat="49.13600078" lon="20.0183863">
<ele>1443.67</ele>
<time>2015-10-25T09:22:45Z</time>
</trkpt>
<trkpt lat="49.13611116" lon="20.01816602">
<ele>1444.24</ele>
<time>2015-10-25T09:22:58Z</time>
</trkpt>
<trkpt lat="49.13610839" lon="20.01788759">
<ele>1445.00</ele>
<time>2015-10-25T09:23:12Z</time>
</trkpt>
<trkpt lat="49.13612742" lon="20.01759541">
<ele>1445.44</ele>
<time>2015-10-25T09:23:24Z</time>
</trkpt>
<trkpt lat="49.1361858" lon="20.0173086">
<ele>1448.81</ele>
<time>2015-10-25T09:23:34Z</time>
</trkpt>
<trkpt lat="49.13622873" lon="20.01702394">
<ele>1452.80</ele>
<time>2015-10-25T09:23:51Z</time>
</trkpt>
<trkpt lat="49.13617818" lon="20.0167557">
<ele>1447.98</ele>
<time>2015-10-25T09:24:08Z</time>
</trkpt>
<trkpt lat="49.13636161" lon="20.01673015">
<ele>1448.12</ele>
<time>2015-10-25T09:26:29Z</time>
</trkpt>
<trkpt lat="49.13653938" lon="20.01680681">
<ele>1450.39</ele>
<time>2015-10-25T09:26:45Z</time>
</trkpt>
<trkpt lat="49.13666017" lon="20.01702076">
<ele>1459.53</ele>
<time>2015-10-25T09:27:00Z</time>
</trkpt>
<trkpt lat="49.13672452" lon="20.01729189">
<ele>1456.02</ele>
<time>2015-10-25T09:27:11Z</time>
</trkpt>
<trkpt lat="49.13680761" lon="20.01753637">
<ele>1457.96</ele>
<time>2015-10-25T09:27:25Z</time>
</trkpt>
<trkpt lat="49.13697123" lon="20.01769142">
<ele>1459.03</ele>
<time>2015-10-25T09:27:37Z</time>
</trkpt>
<trkpt lat="49.13712377" lon="20.01785203">
<ele>1461.33</ele>
<time>2015-10-25T09:27:49Z</time>
</trkpt>
<trkpt lat="49.13722825" lon="20.01807691">
<ele>1464.42</ele>
<time>2015-10-25T09:27:58Z</time>
</trkpt>
<trkpt lat="49.13721258" lon="20.01839353">
<ele>1468.75</ele>
<time>2015-10-25T09:28:07Z</time>
</trkpt>
<trkpt lat="49.13720421" lon="20.01869266">
<ele>1466.01</ele>
<time>2015-10-25T09:28:16Z</time>
</trkpt>
<trkpt lat="49.1371862" lon="20.01897095">
<ele>1467.17</ele>
<time>2015-10-25T09:28:25Z</time>
</trkpt>
<trkpt lat="49.13711282" lon="20.01924314">
<ele>1467.79</ele>
<time>2015-10-25T09:28:36Z</time>
</trkpt>
<trkpt lat="49.13705589" lon="20.0195356">
<ele>1463.00</ele>
<time>2015-10-25T09:28:46Z</time>
</trkpt>
<trkpt lat="49.13698624" lon="20.01979139">
<ele>1460.79</ele>
<time>2015-10-25T09:28:53Z</time>
</trkpt>
<trkpt lat="49.13695257" lon="20.02007572">
<ele>1458.51</ele>
<time>2015-10-25T09:29:01Z</time>
</trkpt>
<trkpt lat="49.13691573" lon="20.02034443">
<ele>1456.06</ele>
<time>2015-10-25T09:29:10Z</time>
</trkpt>
<trkpt lat="49.13695565" lon="20.02063688">
<ele>1453.12</ele>
<time>2015-10-25T09:29:18Z</time>
</trkpt>
<trkpt lat="49.13697417" lon="20.02093075">
<ele>1452.40</ele>
<time>2015-10-25T09:29:29Z</time>
</trkpt>
<trkpt lat="49.13698799" lon="20.02121023">
<ele>1452.38</ele>
<time>2015-10-25T09:29:36Z</time>
</trkpt>
<trkpt lat="49.13694594" lon="20.0214943">
<ele>1450.62</ele>
<time>2015-10-25T09:29:46Z</time>
</trkpt>
<trkpt lat="49.13686072" lon="20.02175619">
<ele>1450.87</ele>
<time>2015-10-25T09:29:56Z</time>
</trkpt>
<trkpt lat="49.13675929" lon="20.02198469">
<ele>1450.07</ele>
<time>2015-10-25T09:30:05Z</time>
</trkpt>
<trkpt lat="49.13663056" lon="20.02218556">
<ele>1454.15</ele>
<time>2015-10-25T09:30:14Z</time>
</trkpt>
<trkpt lat="49.13661314" lon="20.02246317">
<ele>1453.49</ele>
<time>2015-10-25T09:30:22Z</time>
</trkpt>
<trkpt lat="49.13664515" lon="20.02276885">
<ele>1451.55</ele>
<time>2015-10-25T09:30:30Z</time>
</trkpt>
<trkpt lat="49.1366548" lon="20.02304328">
<ele>1452.12</ele>
<time>2015-10-25T09:30:40Z</time>
</trkpt>
<trkpt lat="49.1366166" lon="20.0233319">
<ele>1453.79</ele>
<time>2015-10-25T09:30:52Z</time>
</trkpt>
<trkpt lat="49.13655016" lon="20.02362621">
<ele>1454.42</ele>
<time>2015-10-25T09:31:02Z</time>
</trkpt>
<trkpt lat="49.13649891" lon="20.02391881">
<ele>1453.34</ele>
<time>2015-10-25T09:31:11Z</time>
</trkpt>
<trkpt lat="49.13643536" lon="20.02418232">
<ele>1450.87</ele>
<time>2015-10-25T09:31:20Z</time>
</trkpt>
<trkpt lat="49.13641993" lon="20.02449254">
<ele>1449.99</ele>
<time>2015-10-25T09:31:28Z</time>
</trkpt>
<trkpt lat="49.13641718" lon="20.02477666">
<ele>1448.13</ele>
<time>2015-10-25T09:31:35Z</time>
</trkpt>
<trkpt lat="49.13640347" lon="20.02508028">
<ele>1451.95</ele>
<time>2015-10-25T09:31:46Z</time>
</trkpt>
<trkpt lat="49.13633721" lon="20.02534008">
<ele>1455.27</ele>
<time>2015-10-25T09:31:58Z</time>
</trkpt>
<trkpt lat="49.13623048" lon="20.02560061">
<ele>1463.25</ele>
<time>2015-10-25T09:32:10Z</time>
</trkpt>
<trkpt lat="49.13606373" lon="20.02577312">
<ele>1468.13</ele>
<time>2015-10-25T09:32:20Z</time>
</trkpt>
<trkpt lat="49.1359461" lon="20.02599501">
<ele>1470.14</ele>
<time>2015-10-25T09:32:29Z</time>
</trkpt>
<trkpt lat="49.13589169" lon="20.02629095">
<ele>1466.82</ele>
<time>2015-10-25T09:32:38Z</time>
</trkpt>
<trkpt lat="49.13584098" lon="20.02655452">
<ele>1464.48</ele>
<time>2015-10-25T09:32:45Z</time>
</trkpt>
<trkpt lat="49.13572892" lon="20.02678114">
<ele>1464.78</ele>
<time>2015-10-25T09:32:54Z</time>
</trkpt>
<trkpt lat="49.13560015" lon="20.02697532">
<ele>1467.46</ele>
<time>2015-10-25T09:33:04Z</time>
</trkpt>
<trkpt lat="49.1354825" lon="20.02723972">
<ele>1468.40</ele>
<time>2015-10-25T09:33:12Z</time>
</trkpt>
<trkpt lat="49.13532971" lon="20.02740237">
<ele>1469.91</ele>
<time>2015-10-25T09:33:20Z</time>
</trkpt>
<trkpt lat="49.13519435" lon="20.02758608">
<ele>1471.74</ele>
<time>2015-10-25T09:33:29Z</time>
</trkpt>
<trkpt lat="49.13504534" lon="20.02774424">
<ele>1465.56</ele>
<time>2015-10-25T09:33:36Z</time>
</trkpt>
<trkpt lat="49.13485862" lon="20.02781032">
<ele>1460.84</ele>
<time>2015-10-25T09:33:44Z</time>
</trkpt>
<trkpt lat="49.13467483" lon="20.0278029">
<ele>1458.92</ele>
<time>2015-10-25T09:33:52Z</time>
</trkpt>
<trkpt lat="49.13449844" lon="20.02785827">
<ele>1458.48</ele>
<time>2015-10-25T09:34:01Z</time>
</trkpt>
<trkpt lat="49.13442788" lon="20.02811686">
<ele>1458.70</ele>
<time>2015-10-25T09:34:10Z</time>
</trkpt>
<trkpt lat="49.13442473" lon="20.02839391">
<ele>1457.52</ele>
<time>2015-10-25T09:34:17Z</time>
</trkpt>
<trkpt lat="49.13440394" lon="20.028678">
<ele>1454.72</ele>
<time>2015-10-25T09:34:25Z</time>
</trkpt>
<trkpt lat="49.1343746" lon="20.02895478">
<ele>1453.76</ele>
<time>2015-10-25T09:34:32Z</time>
</trkpt>
<trkpt lat="49.13435193" lon="20.02923301">
<ele>1454.37</ele>
<time>2015-10-25T09:34:41Z</time>
</trkpt>
<trkpt lat="49.13431698" lon="20.02950426">
<ele>1457.28</ele>
<time>2015-10-25T09:34:51Z</time>
</trkpt>
<trkpt lat="49.13431628" lon="20.02979745">
<ele>1458.70</ele>
<time>2015-10-25T09:34:59Z</time>
</trkpt>
<trkpt lat="49.13432823" lon="20.03010262">
<ele>1460.11</ele>
<time>2015-10-25T09:35:07Z</time>
</trkpt>
<trkpt lat="49.13432949" lon="20.03038345">
<ele>1461.71</ele>
<time>2015-10-25T09:35:16Z</time>
</trkpt>
<trkpt lat="49.13432218" lon="20.03067354">
<ele>1458.50</ele>
<time>2015-10-25T09:35:24Z</time>
</trkpt>
<trkpt lat="49.13424842" lon="20.03092744">
<ele>1457.19</ele>
<time>2015-10-25T09:35:32Z</time>
</trkpt>
<trkpt lat="49.1341673" lon="20.03119687">
<ele>1447.84</ele>
<time>2015-10-25T09:35:41Z</time>
</trkpt>
<trkpt lat="49.13408502" lon="20.03146688">
<ele>1455.90</ele>
<time>2015-10-25T09:35:50Z</time>
</trkpt>
<trkpt lat="49.13405214" lon="20.03174762">
<ele>1456.40</ele>
<time>2015-10-25T09:35:59Z</time>
</trkpt>
<trkpt lat="49.13404895" lon="20.03202503">
<ele>1456.99</ele>
<time>2015-10-25T09:36:08Z</time>
</trkpt>
<trkpt lat="49.13407915" lon="20.03232641">
<ele>1455.50</ele>
<time>2015-10-25T09:36:17Z</time>
</trkpt>
<trkpt lat="49.13411909" lon="20.0326246">
<ele>1455.02</ele>
<time>2015-10-25T09:36:29Z</time>
</trkpt>
<trkpt lat="49.13418757" lon="20.03289661">
<ele>1452.84</ele>
<time>2015-10-25T09:36:36Z</time>
</trkpt>
<trkpt lat="49.13429267" lon="20.03313267">
<ele>1450.46</ele>
<time>2015-10-25T09:36:42Z</time>
</trkpt>
<trkpt lat="49.13426627" lon="20.03342472">
<ele>1449.73</ele>
<time>2015-10-25T09:36:50Z</time>
</trkpt>
<trkpt lat="49.13412683" lon="20.03363581">
<ele>1442.39</ele>
<time>2015-10-25T09:37:00Z</time>
</trkpt>
<trkpt lat="49.13395861" lon="20.03373609">
<ele>1444.11</ele>
<time>2015-10-25T09:37:10Z</time>
</trkpt>
<trkpt lat="49.13377578" lon="20.03369548">
<ele>1448.25</ele>
<time>2015-10-25T09:37:18Z</time>
</trkpt>
<trkpt lat="49.13358167" lon="20.03369625">
<ele>1448.12</ele>
<time>2015-10-25T09:37:26Z</time>
</trkpt>
<trkpt lat="49.13346635" lon="20.03394259">
<ele>1445.44</ele>
<time>2015-10-25T09:37:34Z</time>
</trkpt>
<trkpt lat="49.13333127" lon="20.03417706">
<ele>1446.81</ele>
<time>2015-10-25T09:37:44Z</time>
</trkpt>
<trkpt lat="49.13315678" lon="20.03433437">
<ele>1451.06</ele>
<time>2015-10-25T09:37:52Z</time>
</trkpt>
<trkpt lat="49.13303562" lon="20.03453779">
<ele>1455.29</ele>
<time>2015-10-25T09:38:01Z</time>
</trkpt>
<trkpt lat="49.13295859" lon="20.03482416">
<ele>1451.86</ele>
<time>2015-10-25T09:38:10Z</time>
</trkpt>
<trkpt lat="49.1328941" lon="20.03510718">
<ele>1446.44</ele>
<time>2015-10-25T09:38:17Z</time>
</trkpt>
<trkpt lat="49.13280184" lon="20.03534249">
<ele>1444.59</ele>
<time>2015-10-25T09:38:27Z</time>
</trkpt>
<trkpt lat="49.13273379" lon="20.03561973">
<ele>1443.95</ele>
<time>2015-10-25T09:38:37Z</time>
</trkpt>
<trkpt lat="49.13272262" lon="20.03589519">
<ele>1444.98</ele>
<time>2015-10-25T09:38:45Z</time>
</trkpt>
<trkpt lat="49.13276426" lon="20.03617757">
<ele>1448.33</ele>
<time>2015-10-25T09:38:54Z</time>
</trkpt>
<trkpt lat="49.13278673" lon="20.03646456">
<ele>1447.25</ele>
<time>2015-10-25T09:39:03Z</time>
</trkpt>
<trkpt lat="49.13269408" lon="20.03674543">
<ele>1447.39</ele>
<time>2015-10-25T09:39:12Z</time>
</trkpt>
<trkpt lat="49.1325305" lon="20.03689599">
<ele>1448.05</ele>
<time>2015-10-25T09:39:20Z</time>
</trkpt>
<trkpt lat="49.1323673" lon="20.03705614">
<ele>1445.89</ele>
<time>2015-10-25T09:39:29Z</time>
</trkpt>
<trkpt lat="49.13219565" lon="20.03718456">
<ele>1445.16</ele>
<time>2015-10-25T09:39:39Z</time>
</trkpt>
<trkpt lat="49.13201068" lon="20.03727353">
<ele>1446.32</ele>
<time>2015-10-25T09:39:48Z</time>
</trkpt>
<trkpt lat="49.13183821" lon="20.03743204">
<ele>1443.70</ele>
<time>2015-10-25T09:39:57Z</time>
</trkpt>
<trkpt lat="49.13166747" lon="20.03753003">
<ele>1444.86</ele>
<time>2015-10-25T09:40:04Z</time>
</trkpt>
<trkpt lat="49.13150468" lon="20.03764777">
<ele>1443.37</ele>
<time>2015-10-25T09:40:12Z</time>
</trkpt>
<trkpt lat="49.13134577" lon="20.03781301">
<ele>1440.07</ele>
<time>2015-10-25T09:40:21Z</time>
</trkpt>
<trkpt lat="49.1311848" lon="20.03798659">
<ele>1435.63</ele>
<time>2015-10-25T09:40:29Z</time>
</trkpt>
<trkpt lat="49.13105456" lon="20.0382161">
<ele>1439.33</ele>
<time>2015-10-25T09:40:39Z</time>
</trkpt>
<trkpt lat="49.13092047" lon="20.03842858">
<ele>1432.37</ele>
<time>2015-10-25T09:40:47Z</time>
</trkpt>
<trkpt lat="49.13081613" lon="20.03867343">
<ele>1428.78</ele>
<time>2015-10-25T09:40:55Z</time>
</trkpt>
<trkpt lat="49.13069396" lon="20.03887768">
<ele>1430.29</ele>
<time>2015-10-25T09:41:05Z</time>
</trkpt>
<trkpt lat="49.13061316" lon="20.03915336">
<ele>1428.80</ele>
<time>2015-10-25T09:41:13Z</time>
</trkpt>
<trkpt lat="49.13050181" lon="20.03942862">
<ele>1431.86</ele>
<time>2015-10-25T09:41:23Z</time>
</trkpt>
<trkpt lat="49.13041389" lon="20.03969641">
<ele>1428.12</ele>
<time>2015-10-25T09:41:31Z</time>
</trkpt>
<trkpt lat="49.13036557" lon="20.03996503">
<ele>1425.68</ele>
<time>2015-10-25T09:41:39Z</time>
</trkpt>
<trkpt lat="49.13031719" lon="20.04025878">
<ele>1424.14</ele>
<time>2015-10-25T09:41:47Z</time>
</trkpt>
<trkpt lat="49.13024424" lon="20.04052739">
<ele>1422.37</ele>
<time>2015-10-25T09:41:55Z</time>
</trkpt>
<trkpt lat="49.13014874" lon="20.04079251">
<ele>1420.56</ele>
<time>2015-10-25T09:42:04Z</time>
</trkpt>
<trkpt lat="49.13004731" lon="20.04103967">
<ele>1419.37</ele>
<time>2015-10-25T09:42:12Z</time>
</trkpt>
<trkpt lat="49.12991997" lon="20.0412344">
<ele>1417.87</ele>
<time>2015-10-25T09:42:21Z</time>
</trkpt>
<trkpt lat="49.12976724" lon="20.04138113">
<ele>1414.25</ele>
<time>2015-10-25T09:42:30Z</time>
</trkpt>
<trkpt lat="49.12960169" lon="20.04152244">
<ele>1410.01</ele>
<time>2015-10-25T09:42:40Z</time>
</trkpt>
<trkpt lat="49.12945055" lon="20.04170214">
<ele>1408.76</ele>
<time>2015-10-25T09:42:50Z</time>
</trkpt>
<trkpt lat="49.12938498" lon="20.04197827">
<ele>1405.75</ele>
<time>2015-10-25T09:42:58Z</time>
</trkpt>
<trkpt lat="49.12928621" lon="20.04221631">
<ele>1405.39</ele>
<time>2015-10-25T09:43:07Z</time>
</trkpt>
<trkpt lat="49.12921951" lon="20.04247421">
<ele>1405.24</ele>
<time>2015-10-25T09:43:15Z</time>
</trkpt>
<trkpt lat="49.12909473" lon="20.04267631">
<ele>1403.41</ele>
<time>2015-10-25T09:43:23Z</time>
</trkpt>
<trkpt lat="49.12895934" lon="20.04290902">
<ele>1399.54</ele>
<time>2015-10-25T09:43:33Z</time>
</trkpt>
<trkpt lat="49.128765" lon="20.04298481">
<ele>1396.76</ele>
<time>2015-10-25T09:43:42Z</time>
</trkpt>
<trkpt lat="49.12856259" lon="20.04297898">
<ele>1393.61</ele>
<time>2015-10-25T09:43:51Z</time>
</trkpt>
<trkpt lat="49.12838302" lon="20.04294135">
<ele>1393.04</ele>
<time>2015-10-25T09:44:00Z</time>
</trkpt>
<trkpt lat="49.1282473" lon="20.04312657">
<ele>1390.94</ele>
<time>2015-10-25T09:44:08Z</time>
</trkpt>
<trkpt lat="49.1283172" lon="20.04339272">
<ele>1391.35</ele>
<time>2015-10-25T09:44:16Z</time>
</trkpt>
<trkpt lat="49.12843712" lon="20.04360652">
<ele>1388.77</ele>
<time>2015-10-25T09:44:24Z</time>
</trkpt>
<trkpt lat="49.12847939" lon="20.04391606">
<ele>1385.93</ele>
<time>2015-10-25T09:44:32Z</time>
</trkpt>
<trkpt lat="49.1284696" lon="20.04419666">
<ele>1384.48</ele>
<time>2015-10-25T09:44:39Z</time>
</trkpt>
<trkpt lat="49.12837307" lon="20.04445778">
<ele>1381.88</ele>
<time>2015-10-25T09:44:48Z</time>
</trkpt>
<trkpt lat="49.12829575" lon="20.04472047">
<ele>1378.21</ele>
<time>2015-10-25T09:44:55Z</time>
</trkpt>
<trkpt lat="49.12812733" lon="20.04482968">
<ele>1378.03</ele>
<time>2015-10-25T09:45:02Z</time>
</trkpt>
<trkpt lat="49.12795287" lon="20.04492823">
<ele>1379.10</ele>
<time>2015-10-25T09:45:11Z</time>
</trkpt>
<trkpt lat="49.12778972" lon="20.04504762">
<ele>1377.03</ele>
<time>2015-10-25T09:45:18Z</time>
</trkpt>
<trkpt lat="49.12762685" lon="20.04520469">
<ele>1375.35</ele>
<time>2015-10-25T09:45:26Z</time>
</trkpt>
<trkpt lat="49.12747388" lon="20.04538097">
<ele>1372.87</ele>
<time>2015-10-25T09:45:34Z</time>
</trkpt>
<trkpt lat="49.12732847" lon="20.04556427">
<ele>1372.01</ele>
<time>2015-10-25T09:45:42Z</time>
</trkpt>
<trkpt lat="49.1272332" lon="20.04580755">
<ele>1370.85</ele>
<time>2015-10-25T09:45:50Z</time>
</trkpt>
<trkpt lat="49.12715386" lon="20.04609118">
<ele>1373.03</ele>
<time>2015-10-25T09:46:00Z</time>
</trkpt>
<trkpt lat="49.12705435" lon="20.04634534">
<ele>1370.40</ele>
<time>2015-10-25T09:46:08Z</time>
</trkpt>
<trkpt lat="49.12692914" lon="20.04658696">
<ele>1370.12</ele>
<time>2015-10-25T09:46:16Z</time>
</trkpt>
<trkpt lat="49.12677643" lon="20.04677012">
<ele>1372.85</ele>
<time>2015-10-25T09:46:24Z</time>
</trkpt>
<trkpt lat="49.12661721" lon="20.04697658">
<ele>1371.71</ele>
<time>2015-10-25T09:46:32Z</time>
</trkpt>
<trkpt lat="49.12648643" lon="20.04721074">
<ele>1371.80</ele>
<time>2015-10-25T09:46:40Z</time>
</trkpt>
<trkpt lat="49.12635622" lon="20.04743988">
<ele>1370.47</ele>
<time>2015-10-25T09:46:48Z</time>
</trkpt>
<trkpt lat="49.12625254" lon="20.04770179">
<ele>1369.89</ele>
<time>2015-10-25T09:46:57Z</time>
</trkpt>
<trkpt lat="49.12621356" lon="20.0479735">
<ele>1366.63</ele>
<time>2015-10-25T09:47:05Z</time>
</trkpt>
<trkpt lat="49.12622564" lon="20.04825753">
<ele>1370.28</ele>
<time>2015-10-25T09:47:13Z</time>
</trkpt>
<trkpt lat="49.12622807" lon="20.04853523">
<ele>1375.01</ele>
<time>2015-10-25T09:47:23Z</time>
</trkpt>
<trkpt lat="49.12624405" lon="20.04881105">
<ele>1375.89</ele>
<time>2015-10-25T09:47:33Z</time>
</trkpt>
<trkpt lat="49.12628864" lon="20.04910577">
<ele>1376.32</ele>
<time>2015-10-25T09:47:41Z</time>
</trkpt>
<trkpt lat="49.12631691" lon="20.04937639">
<ele>1380.57</ele>
<time>2015-10-25T09:47:51Z</time>
</trkpt>
<trkpt lat="49.1263248" lon="20.04966774">
<ele>1384.15</ele>
<time>2015-10-25T09:48:03Z</time>
</trkpt>
<trkpt lat="49.12623429" lon="20.04991268">
<ele>1384.17</ele>
<time>2015-10-25T09:48:12Z</time>
</trkpt>
<trkpt lat="49.12605899" lon="20.05003678">
<ele>1382.78</ele>
<time>2015-10-25T09:48:21Z</time>
</trkpt>
<trkpt lat="49.12592545" lon="20.05024266">
<ele>1387.31</ele>
<time>2015-10-25T09:48:32Z</time>
</trkpt>
<trkpt lat="49.12602834" lon="20.05048818">
<ele>1388.86</ele>
<time>2015-10-25T09:48:44Z</time>
</trkpt>
<trkpt lat="49.12604887" lon="20.05079597">
<ele>1389.14</ele>
<time>2015-10-25T09:48:53Z</time>
</trkpt>
<trkpt lat="49.12602741" lon="20.05108124">
<ele>1388.48</ele>
<time>2015-10-25T09:49:01Z</time>
</trkpt>
<trkpt lat="49.12593349" lon="20.05133631">
<ele>1387.87</ele>
<time>2015-10-25T09:49:08Z</time>
</trkpt>
<trkpt lat="49.12580567" lon="20.05157708">
<ele>1386.93</ele>
<time>2015-10-25T09:49:16Z</time>
</trkpt>
<trkpt lat="49.12564092" lon="20.05173224">
<ele>1386.00</ele>
<time>2015-10-25T09:49:23Z</time>
</trkpt>
<trkpt lat="49.12545678" lon="20.05177841">
<ele>1387.30</ele>
<time>2015-10-25T09:49:30Z</time>
</trkpt>
<trkpt lat="49.12526006" lon="20.05179917">
<ele>1387.57</ele>
<time>2015-10-25T09:49:37Z</time>
</trkpt>
<trkpt lat="49.12507865" lon="20.05173813">
<ele>1386.43</ele>
<time>2015-10-25T09:49:44Z</time>
</trkpt>
<trkpt lat="49.12489307" lon="20.05164721">
<ele>1387.05</ele>
<time>2015-10-25T09:49:51Z</time>
</trkpt>
<trkpt lat="49.1246952" lon="20.05162985">
<ele>1387.36</ele>
<time>2015-10-25T09:49:59Z</time>
</trkpt>
<trkpt lat="49.12451837" lon="20.05168562">
<ele>1385.33</ele>
<time>2015-10-25T09:50:05Z</time>
</trkpt>
<trkpt lat="49.12431826" lon="20.05174985">
<ele>1383.07</ele>
<time>2015-10-25T09:50:14Z</time>
</trkpt>
<trkpt lat="49.12414383" lon="20.05185252">
<ele>1379.49</ele>
<time>2015-10-25T09:50:22Z</time>
</trkpt>
<trkpt lat="49.12396807" lon="20.05199574">
<ele>1374.82</ele>
<time>2015-10-25T09:50:30Z</time>
</trkpt>
<trkpt lat="49.12379545" lon="20.05213594">
<ele>1375.54</ele>
<time>2015-10-25T09:50:38Z</time>
</trkpt>
<trkpt lat="49.12360475" lon="20.05225542">
<ele>1370.90</ele>
<time>2015-10-25T09:50:46Z</time>
</trkpt>
<trkpt lat="49.12343177" lon="20.0523466">
<ele>1366.64</ele>
<time>2015-10-25T09:50:53Z</time>
</trkpt>
<trkpt lat="49.12325368" lon="20.05239173">
<ele>1364.76</ele>
<time>2015-10-25T09:51:00Z</time>
</trkpt>
<trkpt lat="49.12306062" lon="20.05245574">
<ele>1364.96</ele>
<time>2015-10-25T09:51:07Z</time>
</trkpt>
<trkpt lat="49.12288562" lon="20.05260112">
<ele>1366.85</ele>
<time>2015-10-25T09:51:15Z</time>
</trkpt>
<trkpt lat="49.12272475" lon="20.05278703">
<ele>1367.58</ele>
<time>2015-10-25T09:51:23Z</time>
</trkpt>
<trkpt lat="49.12255945" lon="20.05296587">
<ele>1368.18</ele>
<time>2015-10-25T09:51:31Z</time>
</trkpt>
<trkpt lat="49.1224318" lon="20.05316712">
<ele>1368.09</ele>
<time>2015-10-25T09:51:38Z</time>
</trkpt>
<trkpt lat="49.1222751" lon="20.05334515">
<ele>1368.57</ele>
<time>2015-10-25T09:51:47Z</time>
</trkpt>
<trkpt lat="49.12208866" lon="20.05344219">
<ele>1366.60</ele>
<time>2015-10-25T09:51:55Z</time>
</trkpt>
<trkpt lat="49.12190301" lon="20.05350518">
<ele>1365.90</ele>
<time>2015-10-25T09:52:03Z</time>
</trkpt>
<trkpt lat="49.12172008" lon="20.05356097">
<ele>1365.33</ele>
<time>2015-10-25T09:52:10Z</time>
</trkpt>
<trkpt lat="49.12154064" lon="20.05363248">
<ele>1361.41</ele>
<time>2015-10-25T09:52:17Z</time>
</trkpt>
<trkpt lat="49.12135402" lon="20.05371103">
<ele>1359.55</ele>
<time>2015-10-25T09:52:23Z</time>
</trkpt>
<trkpt lat="49.12118411" lon="20.05384821">
<ele>1355.57</ele>
<time>2015-10-25T09:52:29Z</time>
</trkpt>
<trkpt lat="49.12103611" lon="20.05404196">
<ele>1355.68</ele>
<time>2015-10-25T09:52:36Z</time>
</trkpt>
<trkpt lat="49.12093296" lon="20.05427238">
<ele>1357.37</ele>
<time>2015-10-25T09:52:44Z</time>
</trkpt>
<trkpt lat="49.12084812" lon="20.05452753">
<ele>1357.77</ele>
<time>2015-10-25T09:52:53Z</time>
</trkpt>
<trkpt lat="49.12074789" lon="20.05476626">
<ele>1362.32</ele>
<time>2015-10-25T09:53:02Z</time>
</trkpt>
<trkpt lat="49.12062818" lon="20.05498096">
<ele>1365.60</ele>
<time>2015-10-25T09:53:11Z</time>
</trkpt>
<trkpt lat="49.12052404" lon="20.05520889">
<ele>1365.05</ele>
<time>2015-10-25T09:53:21Z</time>
</trkpt>
<trkpt lat="49.12050876" lon="20.05551762">
<ele>1363.80</ele>
<time>2015-10-25T09:53:29Z</time>
</trkpt>
<trkpt lat="49.12044794" lon="20.05578993">
<ele>1361.03</ele>
<time>2015-10-25T09:53:36Z</time>
</trkpt>
<trkpt lat="49.1203383" lon="20.0560084">
<ele>1356.26</ele>
<time>2015-10-25T09:53:42Z</time>
</trkpt>
<trkpt lat="49.12019039" lon="20.0562115">
<ele>1357.30</ele>
<time>2015-10-25T09:53:49Z</time>
</trkpt>
<trkpt lat="49.12003777" lon="20.05636687">
<ele>1354.52</ele>
<time>2015-10-25T09:53:55Z</time>
</trkpt>
<trkpt lat="49.11985395" lon="20.05648657">
<ele>1355.30</ele>
<time>2015-10-25T09:54:03Z</time>
</trkpt>
<trkpt lat="49.11975114" lon="20.05673399">
<ele>1353.80</ele>
<time>2015-10-25T09:54:11Z</time>
</trkpt>
<trkpt lat="49.11964086" lon="20.0569527">
<ele>1352.70</ele>
<time>2015-10-25T09:54:19Z</time>
</trkpt>
<trkpt lat="49.11961196" lon="20.05667579">
<ele>1349.95</ele>
<time>2015-10-25T09:54:48Z</time>
</trkpt>
<trkpt lat="49.11973919" lon="20.0564694">
<ele>1342.51</ele>
<time>2015-10-25T09:55:13Z</time>
</trkpt>
<trkpt lat="49.11980576" lon="20.05620239">
<ele>1341.35</ele>
<time>2015-10-25T09:55:28Z</time>
</trkpt>
<trkpt lat="49.1199292" lon="20.05598676">
<ele>1342.35</ele>
<time>2015-10-25T09:55:45Z</time>
</trkpt>
<trkpt lat="49.12005481" lon="20.05578339">
<ele>1343.43</ele>
<time>2015-10-25T09:55:55Z</time>
</trkpt>
<trkpt lat="49.12009938" lon="20.05550372">
<ele>1346.03</ele>
<time>2015-10-25T09:56:04Z</time>
</trkpt>
<trkpt lat="49.12008101" lon="20.05521834">
<ele>1344.81</ele>
<time>2015-10-25T09:56:12Z</time>
</trkpt>
<trkpt lat="49.12008036" lon="20.05492695">
<ele>1343.74</ele>
<time>2015-10-25T09:56:22Z</time>
</trkpt>
<trkpt lat="49.1201757" lon="20.05467618">
<ele>1340.88</ele>
<time>2015-10-25T09:56:31Z</time>
</trkpt>
<trkpt lat="49.12029662" lon="20.05445487">
<ele>1342.69</ele>
<time>2015-10-25T09:56:40Z</time>
</trkpt>
<trkpt lat="49.12041584" lon="20.05422277">
<ele>1344.87</ele>
<time>2015-10-25T09:56:49Z</time>
</trkpt>
<trkpt lat="49.12054395" lon="20.05401009">
<ele>1344.81</ele>
<time>2015-10-25T09:56:57Z</time>
</trkpt>
<trkpt lat="49.12065853" lon="20.05379142">
<ele>1346.61</ele>
<time>2015-10-25T09:57:05Z</time>
</trkpt>
<trkpt lat="49.12073335" lon="20.05352369">
<ele>1342.76</ele>
<time>2015-10-25T09:57:14Z</time>
</trkpt>
<trkpt lat="49.12084703" lon="20.05329911">
<ele>1340.38</ele>
<time>2015-10-25T09:57:22Z</time>
</trkpt>
<trkpt lat="49.1210116" lon="20.05313247">
<ele>1338.49</ele>
<time>2015-10-25T09:57:30Z</time>
</trkpt>
<trkpt lat="49.12118682" lon="20.05299802">
<ele>1339.06</ele>
<time>2015-10-25T09:57:43Z</time>
</trkpt>
<trkpt lat="49.12136841" lon="20.05286834">
<ele>1340.96</ele>
<time>2015-10-25T09:57:50Z</time>
</trkpt>
<trkpt lat="49.12153661" lon="20.05276867">
<ele>1339.42</ele>
<time>2015-10-25T09:57:56Z</time>
</trkpt>
<trkpt lat="49.12168835" lon="20.05260994">
<ele>1336.64</ele>
<time>2015-10-25T09:58:05Z</time>
</trkpt>
<trkpt lat="49.12185697" lon="20.05245411">
<ele>1334.03</ele>
<time>2015-10-25T09:58:14Z</time>
</trkpt>
<trkpt lat="49.12201525" lon="20.05230084">
<ele>1340.32</ele>
<time>2015-10-25T09:58:23Z</time>
</trkpt>
<trkpt lat="49.12216951" lon="20.05210136">
<ele>1342.67</ele>
<time>2015-10-25T09:58:31Z</time>
</trkpt>
<trkpt lat="49.12233106" lon="20.05187649">
<ele>1346.70</ele>
<time>2015-10-25T09:58:40Z</time>
</trkpt>
<trkpt lat="49.12245321" lon="20.05164099">
<ele>1337.57</ele>
<time>2015-10-25T09:58:51Z</time>
</trkpt>
<trkpt lat="49.1226024" lon="20.05145408">
<ele>1336.68</ele>
<time>2015-10-25T09:58:59Z</time>
</trkpt>
<trkpt lat="49.12275626" lon="20.05129835">
<ele>1333.99</ele>
<time>2015-10-25T09:59:06Z</time>
</trkpt>
<trkpt lat="49.12291647" lon="20.05114015">
<ele>1336.65</ele>
<time>2015-10-25T09:59:14Z</time>
</trkpt>
<trkpt lat="49.12303553" lon="20.05091159">
<ele>1335.32</ele>
<time>2015-10-25T09:59:23Z</time>
</trkpt>
<trkpt lat="49.1230088" lon="20.05062523">
<ele>1331.48</ele>
<time>2015-10-25T09:59:30Z</time>
</trkpt>
<trkpt lat="49.12297875" lon="20.05031875">
<ele>1331.36</ele>
<time>2015-10-25T09:59:38Z</time>
</trkpt>
<trkpt lat="49.12294619" lon="20.05003476">
<ele>1323.51</ele>
<time>2015-10-25T09:59:46Z</time>
</trkpt>
<trkpt lat="49.1229347" lon="20.04973846">
<ele>1313.29</ele>
<time>2015-10-25T09:59:55Z</time>
</trkpt>
<trkpt lat="49.12292469" lon="20.04943809">
<ele>1309.64</ele>
<time>2015-10-25T10:00:03Z</time>
</trkpt>
<trkpt lat="49.12292265" lon="20.04914418">
<ele>1305.77</ele>
<time>2015-10-25T10:00:11Z</time>
</trkpt>
<trkpt lat="49.12297852" lon="20.04886415">
<ele>1305.54</ele>
<time>2015-10-25T10:00:19Z</time>
</trkpt>
<trkpt lat="49.1231113" lon="20.04865786">
<ele>1308.83</ele>
<time>2015-10-25T10:00:28Z</time>
</trkpt>
<trkpt lat="49.12328737" lon="20.0485396">
<ele>1304.00</ele>
<time>2015-10-25T10:00:34Z</time>
</trkpt>
<trkpt lat="49.12342083" lon="20.04835554">
<ele>1302.14</ele>
<time>2015-10-25T10:00:42Z</time>
</trkpt>
<trkpt lat="49.12339156" lon="20.04805187">
<ele>1299.72</ele>
<time>2015-10-25T10:00:50Z</time>
</trkpt>
<trkpt lat="49.12335819" lon="20.04775898">
<ele>1297.86</ele>
<time>2015-10-25T10:00:58Z</time>
</trkpt>
<trkpt lat="49.12332479" lon="20.04746841">
<ele>1299.55</ele>
<time>2015-10-25T10:01:06Z</time>
</trkpt>
<trkpt lat="49.12334316" lon="20.04718687">
<ele>1300.18</ele>
<time>2015-10-25T10:01:14Z</time>
</trkpt>
<trkpt lat="49.12336386" lon="20.04690232">
<ele>1300.41</ele>
<time>2015-10-25T10:01:22Z</time>
</trkpt>
<trkpt lat="49.12335862" lon="20.04661871">
<ele>1299.08</ele>
<time>2015-10-25T10:01:30Z</time>
</trkpt>
<trkpt lat="49.12336669" lon="20.04631951">
<ele>1303.21</ele>
<time>2015-10-25T10:01:39Z</time>
</trkpt>
<trkpt lat="49.12335754" lon="20.04602206">
<ele>1303.99</ele>
<time>2015-10-25T10:01:47Z</time>
</trkpt>
<trkpt lat="49.12333455" lon="20.04572001">
<ele>1304.35</ele>
<time>2015-10-25T10:01:55Z</time>
</trkpt>
<trkpt lat="49.12333957" lon="20.04543921">
<ele>1300.82</ele>
<time>2015-10-25T10:02:03Z</time>
</trkpt>
<trkpt lat="49.12329571" lon="20.04514413">
<ele>1299.75</ele>
<time>2015-10-25T10:02:12Z</time>
</trkpt>
<trkpt lat="49.12323838" lon="20.04487223">
<ele>1300.58</ele>
<time>2015-10-25T10:02:20Z</time>
</trkpt>
<trkpt lat="49.12322471" lon="20.04458425">
<ele>1302.49</ele>
<time>2015-10-25T10:02:29Z</time>
</trkpt>
<trkpt lat="49.12310732" lon="20.04436999">
<ele>1305.09</ele>
<time>2015-10-25T10:02:40Z</time>
</trkpt>
<trkpt lat="49.12294435" lon="20.04449388">
<ele>1301.00</ele>
<time>2015-10-25T10:02:49Z</time>
</trkpt>
<trkpt lat="49.12280501" lon="20.04468886">
<ele>1298.61</ele>
<time>2015-10-25T10:03:03Z</time>
</trkpt>
<trkpt lat="49.12266672" lon="20.04490515">
<ele>1298.49</ele>
<time>2015-10-25T10:03:13Z</time>
</trkpt>
<trkpt lat="49.12253796" lon="20.04513455">
<ele>1294.70</ele>
<time>2015-10-25T10:03:21Z</time>
</trkpt>
<trkpt lat="49.12239162" lon="20.04531165">
<ele>1291.42</ele>
<time>2015-10-25T10:03:29Z</time>
</trkpt>
<trkpt lat="49.12222936" lon="20.04545496">
<ele>1289.98</ele>
<time>2015-10-25T10:03:37Z</time>
</trkpt>
<trkpt lat="49.12204585" lon="20.04560228">
<ele>1289.74</ele>
<time>2015-10-25T10:03:45Z</time>
</trkpt>
<trkpt lat="49.12186401" lon="20.04568615">
<ele>1289.20</ele>
<time>2015-10-25T10:03:53Z</time>
</trkpt>
<trkpt lat="49.12166911" lon="20.04572008">
<ele>1288.85</ele>
<time>2015-10-25T10:04:02Z</time>
</trkpt>
<trkpt lat="49.12147576" lon="20.0457586">
<ele>1288.49</ele>
<time>2015-10-25T10:04:10Z</time>
</trkpt>
<trkpt lat="49.12129882" lon="20.0458797">
<ele>1287.61</ele>
<time>2015-10-25T10:04:19Z</time>
</trkpt>
<trkpt lat="49.12113137" lon="20.04601477">
<ele>1287.69</ele>
<time>2015-10-25T10:04:28Z</time>
</trkpt>
<trkpt lat="49.12097221" lon="20.04617457">
<ele>1288.12</ele>
<time>2015-10-25T10:04:37Z</time>
</trkpt>
<trkpt lat="49.12079059" lon="20.04628131">
<ele>1287.42</ele>
<time>2015-10-25T10:04:45Z</time>
</trkpt>
<trkpt lat="49.12060888" lon="20.04633509">
<ele>1285.02</ele>
<time>2015-10-25T10:04:54Z</time>
</trkpt>
<trkpt lat="49.12042237" lon="20.04636219">
<ele>1284.41</ele>
<time>2015-10-25T10:05:02Z</time>
</trkpt>
<trkpt lat="49.1202444" lon="20.04630256">
<ele>1286.48</ele>
<time>2015-10-25T10:05:10Z</time>
</trkpt>
<trkpt lat="49.12008149" lon="20.04615924">
<ele>1287.37</ele>
<time>2015-10-25T10:05:19Z</time>
</trkpt>
<trkpt lat="49.1199756" lon="20.04592828">
<ele>1287.55</ele>
<time>2015-10-25T10:05:27Z</time>
</trkpt>
<trkpt lat="49.11984087" lon="20.04569013">
<ele>1286.39</ele>
<time>2015-10-25T10:05:36Z</time>
</trkpt>
<trkpt lat="49.11980774" lon="20.04542027">
<ele>1288.63</ele>
<time>2015-10-25T10:05:44Z</time>
</trkpt>
<trkpt lat="49.11971094" lon="20.04514599">
<ele>1286.29</ele>
<time>2015-10-25T10:05:51Z</time>
</trkpt>
<trkpt lat="49.11965351" lon="20.04488385">
<ele>1285.29</ele>
<time>2015-10-25T10:05:58Z</time>
</trkpt>
<trkpt lat="49.11962052" lon="20.0446003">
<ele>1284.81</ele>
<time>2015-10-25T10:06:06Z</time>
</trkpt>
<trkpt lat="49.11955235" lon="20.04434447">
<ele>1286.23</ele>
<time>2015-10-25T10:06:13Z</time>
</trkpt>
<trkpt lat="49.11947245" lon="20.04409301">
<ele>1285.10</ele>
<time>2015-10-25T10:06:21Z</time>
</trkpt>
<trkpt lat="49.11941444" lon="20.04379898">
<ele>1281.53</ele>
<time>2015-10-25T10:06:29Z</time>
</trkpt>
<trkpt lat="49.11937464" lon="20.04351119">
<ele>1279.16</ele>
<time>2015-10-25T10:06:37Z</time>
</trkpt>
<trkpt lat="49.11935047" lon="20.04320246">
<ele>1281.68</ele>
<time>2015-10-25T10:06:46Z</time>
</trkpt>
<trkpt lat="49.11928323" lon="20.04291951">
<ele>1282.20</ele>
<time>2015-10-25T10:06:54Z</time>
</trkpt>
<trkpt lat="49.11921796" lon="20.04262921">
<ele>1283.35</ele>
<time>2015-10-25T10:07:02Z</time>
</trkpt>
<trkpt lat="49.11915762" lon="20.04235235">
<ele>1280.69</ele>
<time>2015-10-25T10:07:10Z</time>
</trkpt>
<trkpt lat="49.11910795" lon="20.04207926">
<ele>1278.23</ele>
<time>2015-10-25T10:07:18Z</time>
</trkpt>
<trkpt lat="49.11907691" lon="20.04179927">
<ele>1280.08</ele>
<time>2015-10-25T10:07:26Z</time>
</trkpt>
<trkpt lat="49.1190472" lon="20.04148773">
<ele>1279.06</ele>
<time>2015-10-25T10:07:35Z</time>
</trkpt>
<trkpt lat="49.1190175" lon="20.04118514">
<ele>1278.43</ele>
<time>2015-10-25T10:07:43Z</time>
</trkpt>
<trkpt lat="49.11896487" lon="20.0409197">
<ele>1277.11</ele>
<time>2015-10-25T10:07:50Z</time>
</trkpt>
<trkpt lat="49.11892264" lon="20.04062171">
<ele>1276.85</ele>
<time>2015-10-25T10:07:59Z</time>
</trkpt>
<trkpt lat="49.1188671" lon="20.0403206">
<ele>1276.57</ele>
<time>2015-10-25T10:08:08Z</time>
</trkpt>
<trkpt lat="49.11885726" lon="20.04003078">
<ele>1275.82</ele>
<time>2015-10-25T10:08:16Z</time>
</trkpt>
<trkpt lat="49.11882277" lon="20.03973531">
<ele>1277.04</ele>
<time>2015-10-25T10:08:25Z</time>
</trkpt>
<trkpt lat="49.11877871" lon="20.03946143">
<ele>1275.34</ele>
<time>2015-10-25T10:08:33Z</time>
</trkpt>
<trkpt lat="49.11878906" lon="20.03916158">
<ele>1274.27</ele>
<time>2015-10-25T10:08:41Z</time>
</trkpt>
<trkpt lat="49.11876696" lon="20.03886891">
<ele>1274.46</ele>
<time>2015-10-25T10:08:49Z</time>
</trkpt>
<trkpt lat="49.11875064" lon="20.03856331">
<ele>1277.32</ele>
<time>2015-10-25T10:08:58Z</time>
</trkpt>
<trkpt lat="49.11871461" lon="20.03829078">
<ele>1275.71</ele>
<time>2015-10-25T10:09:06Z</time>
</trkpt>
<trkpt lat="49.11872707" lon="20.03797427">
<ele>1275.93</ele>
<time>2015-10-25T10:09:14Z</time>
</trkpt>
<trkpt lat="49.11870717" lon="20.03768486">
<ele>1274.60</ele>
<time>2015-10-25T10:09:23Z</time>
</trkpt>
<trkpt lat="49.11870116" lon="20.0373738">
<ele>1271.02</ele>
<time>2015-10-25T10:09:31Z</time>
</trkpt>
<trkpt lat="49.1186989" lon="20.03709773">
<ele>1268.10</ele>
<time>2015-10-25T10:09:39Z</time>
</trkpt>
<trkpt lat="49.11874465" lon="20.0368122">
<ele>1266.32</ele>
<time>2015-10-25T10:09:50Z</time>
</trkpt>
<trkpt lat="49.11882275" lon="20.03654119">
<ele>1265.42</ele>
<time>2015-10-25T10:09:59Z</time>
</trkpt>
<trkpt lat="49.11888697" lon="20.03627858">
<ele>1265.40</ele>
<time>2015-10-25T10:10:08Z</time>
</trkpt>
<trkpt lat="49.11894294" lon="20.03601468">
<ele>1266.50</ele>
<time>2015-10-25T10:10:17Z</time>
</trkpt>
<trkpt lat="49.11899672" lon="20.03572302">
<ele>1268.79</ele>
<time>2015-10-25T10:10:28Z</time>
</trkpt>
<trkpt lat="49.11904717" lon="20.03545023">
<ele>1268.47</ele>
<time>2015-10-25T10:10:37Z</time>
</trkpt>
<trkpt lat="49.11911681" lon="20.03518223">
<ele>1269.24</ele>
<time>2015-10-25T10:10:46Z</time>
</trkpt>
<trkpt lat="49.11915964" lon="20.03489886">
<ele>1268.44</ele>
<time>2015-10-25T10:10:54Z</time>
</trkpt>
<trkpt lat="49.11922088" lon="20.0346136">
<ele>1267.37</ele>
<time>2015-10-25T10:11:03Z</time>
</trkpt>
<trkpt lat="49.11926738" lon="20.03434692">
<ele>1268.82</ele>
<time>2015-10-25T10:11:11Z</time>
</trkpt>
<trkpt lat="49.11929104" lon="20.03405748">
<ele>1267.51</ele>
<time>2015-10-25T10:11:20Z</time>
</trkpt>
<trkpt lat="49.1193346" lon="20.03377805">
<ele>1266.26</ele>
<time>2015-10-25T10:11:28Z</time>
</trkpt>
<trkpt lat="49.11933473" lon="20.03349529">
<ele>1264.52</ele>
<time>2015-10-25T10:11:36Z</time>
</trkpt>
<trkpt lat="49.11936403" lon="20.03320053">
<ele>1266.65</ele>
<time>2015-10-25T10:11:45Z</time>
</trkpt>
<trkpt lat="49.1193834" lon="20.03292727">
<ele>1265.78</ele>
<time>2015-10-25T10:11:56Z</time>
</trkpt>
<trkpt lat="49.11939132" lon="20.03262803">
<ele>1265.36</ele>
<time>2015-10-25T10:12:07Z</time>
</trkpt>
<trkpt lat="49.11939913" lon="20.03233717">
<ele>1262.65</ele>
<time>2015-10-25T10:12:16Z</time>
</trkpt>
<trkpt lat="49.11942716" lon="20.03203664">
<ele>1259.91</ele>
<time>2015-10-25T10:12:24Z</time>
</trkpt>
<trkpt lat="49.11950933" lon="20.03175396">
<ele>1261.35</ele>
<time>2015-10-25T10:12:32Z</time>
</trkpt>
<trkpt lat="49.11956369" lon="20.03147476">
<ele>1262.78</ele>
<time>2015-10-25T10:12:39Z</time>
</trkpt>
<trkpt lat="49.11956955" lon="20.03119417">
<ele>1260.57</ele>
<time>2015-10-25T10:12:46Z</time>
</trkpt>
<trkpt lat="49.11961905" lon="20.03090781">
<ele>1260.34</ele>
<time>2015-10-25T10:12:54Z</time>
</trkpt>
<trkpt lat="49.11969634" lon="20.03064428">
<ele>1261.84</ele>
<time>2015-10-25T10:13:01Z</time>
</trkpt>
<trkpt lat="49.11980893" lon="20.03041529">
<ele>1264.01</ele>
<time>2015-10-25T10:13:09Z</time>
</trkpt>
<trkpt lat="49.11993783" lon="20.0301934">
<ele>1264.36</ele>
<time>2015-10-25T10:13:17Z</time>
</trkpt>
<trkpt lat="49.12008918" lon="20.03000396">
<ele>1263.96</ele>
<time>2015-10-25T10:13:25Z</time>
</trkpt>
<trkpt lat="49.12021214" lon="20.0297796">
<ele>1265.02</ele>
<time>2015-10-25T10:13:33Z</time>
</trkpt>
<trkpt lat="49.12031624" lon="20.02954278">
<ele>1263.34</ele>
<time>2015-10-25T10:13:40Z</time>
</trkpt>
<trkpt lat="49.12040025" lon="20.02925016">
<ele>1262.28</ele>
<time>2015-10-25T10:13:48Z</time>
</trkpt>
<trkpt lat="49.12049809" lon="20.02901691">
<ele>1261.75</ele>
<time>2015-10-25T10:13:55Z</time>
</trkpt>
<trkpt lat="49.12060576" lon="20.02877467">
<ele>1262.80</ele>
<time>2015-10-25T10:14:02Z</time>
</trkpt>
<trkpt lat="49.12070743" lon="20.02853618">
<ele>1262.01</ele>
<time>2015-10-25T10:14:09Z</time>
</trkpt>
<trkpt lat="49.12079301" lon="20.02829407">
<ele>1262.12</ele>
<time>2015-10-25T10:14:17Z</time>
</trkpt>
<trkpt lat="49.12084739" lon="20.02801067">
<ele>1260.43</ele>
<time>2015-10-25T10:14:26Z</time>
</trkpt>
<trkpt lat="49.12086709" lon="20.02773073">
<ele>1260.20</ele>
<time>2015-10-25T10:14:36Z</time>
</trkpt>
<trkpt lat="49.12088454" lon="20.02745374">
<ele>1262.57</ele>
<time>2015-10-25T10:14:52Z</time>
</trkpt>
<trkpt lat="49.12079509" lon="20.02719211">
<ele>1260.82</ele>
<time>2015-10-25T10:15:22Z</time>
</trkpt>
<trkpt lat="49.12067094" lon="20.02695656">
<ele>1259.89</ele>
<time>2015-10-25T10:15:30Z</time>
</trkpt>
<trkpt lat="49.12053584" lon="20.02673294">
<ele>1261.82</ele>
<time>2015-10-25T10:15:40Z</time>
</trkpt>
<trkpt lat="49.12038052" lon="20.02659034">
<ele>1259.88</ele>
<time>2015-10-25T10:15:49Z</time>
</trkpt>
<trkpt lat="49.12025545" lon="20.02637727">
<ele>1258.70</ele>
<time>2015-10-25T10:15:57Z</time>
</trkpt>
<trkpt lat="49.12017297" lon="20.02609343">
<ele>1259.16</ele>
<time>2015-10-25T10:16:08Z</time>
</trkpt>
<trkpt lat="49.12013224" lon="20.02581789">
<ele>1257.70</ele>
<time>2015-10-25T10:16:16Z</time>
</trkpt>
<trkpt lat="49.12018883" lon="20.02553685">
<ele>1257.46</ele>
<time>2015-10-25T10:16:25Z</time>
</trkpt>
<trkpt lat="49.12010486" lon="20.02528983">
<ele>1260.48</ele>
<time>2015-10-25T10:16:33Z</time>
</trkpt>
<trkpt lat="49.12025003" lon="20.02509692">
<ele>1260.61</ele>
<time>2015-10-25T10:16:45Z</time>
</trkpt>
<trkpt lat="49.12024858" lon="20.02479894">
<ele>1261.33</ele>
<time>2015-10-25T10:16:56Z</time>
</trkpt>
<trkpt lat="49.12009864" lon="20.0246212">
<ele>1258.84</ele>
<time>2015-10-25T10:17:23Z</time>
</trkpt>
<trkpt lat="49.11998244" lon="20.0243612">
<ele>1254.64</ele>
<time>2015-10-25T10:17:42Z</time>
</trkpt>
<trkpt lat="49.12001331" lon="20.02407631">
<ele>1253.85</ele>
<time>2015-10-25T10:17:51Z</time>
</trkpt>
<trkpt lat="49.12010252" lon="20.02381661">
<ele>1255.32</ele>
<time>2015-10-25T10:17:58Z</time>
</trkpt>
<trkpt lat="49.12015575" lon="20.02353307">
<ele>1254.09</ele>
<time>2015-10-25T10:18:07Z</time>
</trkpt>
<trkpt lat="49.12020793" lon="20.0232673">
<ele>1252.62</ele>
<time>2015-10-25T10:18:14Z</time>
</trkpt>
<trkpt lat="49.12031117" lon="20.02302754">
<ele>1256.93</ele>
<time>2015-10-25T10:18:24Z</time>
</trkpt>
<trkpt lat="49.12051861" lon="20.02298756">
<ele>1252.54</ele>
<time>2015-10-25T10:18:36Z</time>
</trkpt>
<trkpt lat="49.12071788" lon="20.022942">
<ele>1252.22</ele>
<time>2015-10-25T10:18:49Z</time>
</trkpt>
<trkpt lat="49.12085031" lon="20.02275019">
<ele>1251.37</ele>
<time>2015-10-25T10:19:00Z</time>
</trkpt>
<trkpt lat="49.12093365" lon="20.02250426">
<ele>1252.22</ele>
<time>2015-10-25T10:19:09Z</time>
</trkpt>
<trkpt lat="49.12112148" lon="20.0224708">
<ele>1252.83</ele>
<time>2015-10-25T10:19:19Z</time>
</trkpt>
<trkpt lat="49.12130288" lon="20.02253899">
<ele>1251.94</ele>
<time>2015-10-25T10:19:36Z</time>
</trkpt>
<trkpt lat="49.12130903" lon="20.02223109">
<ele>1257.58</ele>
<time>2015-10-25T10:19:45Z</time>
</trkpt>
<trkpt lat="49.12131664" lon="20.02192245">
<ele>1255.70</ele>
<time>2015-10-25T10:19:53Z</time>
</trkpt>
<trkpt lat="49.12148289" lon="20.02177109">
<ele>1253.96</ele>
<time>2015-10-25T10:20:05Z</time>
</trkpt>
<trkpt lat="49.12166324" lon="20.0217188">
<ele>1251.13</ele>
<time>2015-10-25T10:20:14Z</time>
</trkpt>
<trkpt lat="49.12166076" lon="20.02144025">
<ele>1257.07</ele>
<time>2015-10-25T10:20:23Z</time>
</trkpt>
<trkpt lat="49.12154183" lon="20.0212051">
<ele>1249.74</ele>
<time>2015-10-25T10:20:31Z</time>
</trkpt>
<trkpt lat="49.12141068" lon="20.0209809">
<ele>1242.99</ele>
<time>2015-10-25T10:20:42Z</time>
</trkpt>
<trkpt lat="49.12125708" lon="20.02081663">
<ele>1242.02</ele>
<time>2015-10-25T10:20:52Z</time>
</trkpt>
<trkpt lat="49.12109639" lon="20.02066565">
<ele>1236.20</ele>
<time>2015-10-25T10:20:59Z</time>
</trkpt>
<trkpt lat="49.12103665" lon="20.02040568">
<ele>1237.03</ele>
<time>2015-10-25T10:21:07Z</time>
</trkpt>
<trkpt lat="49.12092946" lon="20.02014778">
<ele>1244.97</ele>
<time>2015-10-25T10:21:18Z</time>
</trkpt>
<trkpt lat="49.12093096" lon="20.01986789">
<ele>1246.49</ele>
<time>2015-10-25T10:21:30Z</time>
</trkpt>
<trkpt lat="49.12102626" lon="20.01960946">
<ele>1244.31</ele>
<time>2015-10-25T10:21:40Z</time>
</trkpt>
<trkpt lat="49.12112787" lon="20.0193457">
<ele>1245.85</ele>
<time>2015-10-25T10:21:48Z</time>
</trkpt>
<trkpt lat="49.12121269" lon="20.01910316">
<ele>1242.47</ele>
<time>2015-10-25T10:21:55Z</time>
</trkpt>
<trkpt lat="49.1213173" lon="20.0188681">
<ele>1242.61</ele>
<time>2015-10-25T10:22:03Z</time>
</trkpt>
<trkpt lat="49.12140587" lon="20.01860659">
<ele>1241.46</ele>
<time>2015-10-25T10:22:11Z</time>
</trkpt>
<trkpt lat="49.12145881" lon="20.01831608">
<ele>1236.13</ele>
<time>2015-10-25T10:22:19Z</time>
</trkpt>
<trkpt lat="49.12155586" lon="20.0180652">
<ele>1233.88</ele>
<time>2015-10-25T10:22:27Z</time>
</trkpt>
<trkpt lat="49.12141657" lon="20.01787211">
<ele>1230.61</ele>
<time>2015-10-25T10:22:35Z</time>
</trkpt>
<trkpt lat="49.12127326" lon="20.0176911">
<ele>1226.09</ele>
<time>2015-10-25T10:22:43Z</time>
</trkpt>
<trkpt lat="49.12112907" lon="20.01751281">
<ele>1223.86</ele>
<time>2015-10-25T10:22:52Z</time>
</trkpt>
<trkpt lat="49.12100505" lon="20.01727977">
<ele>1222.93</ele>
<time>2015-10-25T10:23:04Z</time>
</trkpt>
<trkpt lat="49.12097533" lon="20.01700181">
<ele>1220.71</ele>
<time>2015-10-25T10:23:20Z</time>
</trkpt>
<trkpt lat="49.12106017" lon="20.01674787">
<ele>1219.50</ele>
<time>2015-10-25T10:23:33Z</time>
</trkpt>
<trkpt lat="49.12121074" lon="20.01655774">
<ele>1217.90</ele>
<time>2015-10-25T10:23:42Z</time>
</trkpt>
<trkpt lat="49.12137292" lon="20.01642765">
<ele>1217.67</ele>
<time>2015-10-25T10:23:50Z</time>
</trkpt>
<trkpt lat="49.12148676" lon="20.01620778">
<ele>1216.46</ele>
<time>2015-10-25T10:23:58Z</time>
</trkpt>
<trkpt lat="49.12158538" lon="20.01595409">
<ele>1216.38</ele>
<time>2015-10-25T10:24:06Z</time>
</trkpt>
<trkpt lat="49.12165827" lon="20.01568167">
<ele>1222.35</ele>
<time>2015-10-25T10:24:33Z</time>
</trkpt>
<trkpt lat="49.12167662" lon="20.01540483">
<ele>1223.42</ele>
<time>2015-10-25T10:24:53Z</time>
</trkpt>
</trkseg>
</trk>
</gpx>
